<?xml version="1.0" encoding="UTF-8" standalone="no"?>
<svg xmlns="http://www.w3.org/2000/svg"
     contentScriptType="application/ecmascript" contentStyleType="text/css" height="1216px" preserveAspectRatio="none"
     style="width:1597px;height:1216px;" version="1.1" viewBox="0 0 1597 1216" width="1597px" zoomAndPan="magnify">
    <defs>
        <filter height="300%" id="f1to5a7z4xmpf4" width="300%" x="-1" y="-1">
            <feGaussianBlur result="blurOut" stdDeviation="2.0"/>
            <feColorMatrix in="blurOut" result="blurOut2" type="matrix"
                           values="0 0 0 0 0 0 0 0 0 0 0 0 0 0 0 0 0 0 .4 0"/>
            <feOffset dx="4.0" dy="4.0" in="blurOut2" result="blurOut3"/>
            <feBlend in="SourceGraphic" in2="blurOut3" mode="normal"/>
        </filter>
    </defs>
    <g>
        <text fill="#000000" font-family="sans-serif" font-size="18" lengthAdjust="spacingAndGlyphs"
              text-decoration="underline" textLength="255" x="674.5" y="18.6855">SURVEYTEST's Class Diagram
        </text>
        <line style="stroke: #000000; stroke-width: 1.0;" x1="674.5" x2="929.5" y1="20.6855" y2="20.6855"/>
        <text fill="#000000" font-family="sans-serif" font-size="18" lengthAdjust="spacingAndGlyphs" textLength="0"
              x="804.5" y="41.3262"/><!--class main-->
        <rect fill="#FEFECE" filter="url(#f1to5a7z4xmpf4)" height="89.5078" id="main"
              style="stroke: #A80036; stroke-width: 1.5;" width="82" x="569.5" y="203.2813"/>
        <ellipse cx="594.4" cy="219.2813" fill="#ADD1B2" rx="11" ry="11" style="stroke: #A80036; stroke-width: 1.0;"/>
        <path d="M596.4,215.7813 Q596.6031,215.2813 596.8375,215.0313 Q597.0719,214.7813 597.3375,214.7813 Q597.8063,214.7813 598.1031,215.0625 Q598.4,215.3438 598.4,216 L598.4,217.5625 Q598.4,218.2188 598.1188,218.5 Q597.8375,218.7813 597.4,218.7813 Q597.0094,218.7813 596.7594,218.6094 Q596.5094,218.4375 596.4,217.9844 Q596.3531,217.6719 596.1813,217.5 Q595.8688,217.1719 595.3063,216.9766 Q594.7438,216.7813 594.1813,216.7813 Q593.4781,216.7813 592.8922,217.0625 Q592.3063,217.3438 591.8531,217.9688 Q591.4,218.5938 591.4,219.4531 L591.4,220.375 Q591.4,221.4063 592.2438,222.0938 Q593.0875,222.7813 594.5875,222.7813 Q595.4781,222.7813 596.1031,222.5781 Q596.4625,222.4688 596.8688,222.1094 Q597.1344,221.9063 597.275,221.8438 Q597.4156,221.7813 597.5875,221.7813 Q597.9156,221.7813 598.1578,222.0391 Q598.4,222.2969 598.4,222.6563 Q598.4,223 598.0563,223.4063 Q597.5563,224 596.7594,224.3281 Q595.7125,224.7813 594.4313,224.7813 Q592.9313,224.7813 591.7281,224.1875 Q590.7594,223.7188 590.0797,222.7031 Q589.4,221.6875 589.4,220.4844 L589.4,219.3906 Q589.4,218.1406 590.0016,217.0469 Q590.6031,215.9531 591.6578,215.3672 Q592.7125,214.7813 593.9,214.7813 Q594.6188,214.7813 595.2438,215.0313 Q595.8688,215.2813 596.4,215.7813 Z "/>
        <text fill="#000000" font-family="sans-serif" font-size="12" lengthAdjust="spacingAndGlyphs" textLength="28"
              x="610.6" y="224.1914">main
        </text>
        <line style="stroke: #A80036; stroke-width: 1.5;" x1="570.5" x2="650.5" y1="235.2813" y2="235.2813"/>
        <ellipse cx="580.5" cy="247.6992" fill="none" rx="3" ry="3" style="stroke: #038048; stroke-width: 1.0;"/>
        <text fill="#000000" font-family="sans-serif" font-size="11" lengthAdjust="spacingAndGlyphs" textLength="42"
              x="589.5" y="250.7002">Manager
        </text>
        <ellipse cx="580.5" cy="261.5352" fill="none" rx="3" ry="3" style="stroke: #038048; stroke-width: 1.0;"/>
        <text fill="#000000" font-family="sans-serif" font-size="11" lengthAdjust="spacingAndGlyphs" textLength="48"
              x="589.5" y="264.5361">MainMenu
        </text>
        <line style="stroke: #A80036; stroke-width: 1.5;" x1="570.5" x2="650.5" y1="270.9531" y2="270.9531"/>
        <ellipse cx="580.5" cy="283.3711" fill="#84BE84" rx="3" ry="3" style="stroke: #038048; stroke-width: 1.0;"/>
        <text fill="#000000" font-family="sans-serif" font-size="11" lengthAdjust="spacingAndGlyphs" textLength="56"
              x="589.5" y="286.3721">main(): void
        </text><!--class SurveyManager-->
        <rect fill="#FEFECE" filter="url(#f1to5a7z4xmpf4)" height="117.1797" id="SurveyManager"
              style="stroke: #A80036; stroke-width: 1.5;" width="116" x="737.5" y="353.2813"/>
        <ellipse cx="752.5" cy="369.2813" fill="#ADD1B2" rx="11" ry="11" style="stroke: #A80036; stroke-width: 1.0;"/>
        <path d="M754.5,365.7813 Q754.7031,365.2813 754.9375,365.0313 Q755.1719,364.7813 755.4375,364.7813 Q755.9063,364.7813 756.2031,365.0625 Q756.5,365.3438 756.5,366 L756.5,367.5625 Q756.5,368.2188 756.2188,368.5 Q755.9375,368.7813 755.5,368.7813 Q755.1094,368.7813 754.8594,368.6094 Q754.6094,368.4375 754.5,367.9844 Q754.4531,367.6719 754.2813,367.5 Q753.9688,367.1719 753.4063,366.9766 Q752.8438,366.7813 752.2813,366.7813 Q751.5781,366.7813 750.9922,367.0625 Q750.4063,367.3438 749.9531,367.9688 Q749.5,368.5938 749.5,369.4531 L749.5,370.375 Q749.5,371.4063 750.3438,372.0938 Q751.1875,372.7813 752.6875,372.7813 Q753.5781,372.7813 754.2031,372.5781 Q754.5625,372.4688 754.9688,372.1094 Q755.2344,371.9063 755.375,371.8438 Q755.5156,371.7813 755.6875,371.7813 Q756.0156,371.7813 756.2578,372.0391 Q756.5,372.2969 756.5,372.6563 Q756.5,373 756.1563,373.4063 Q755.6563,374 754.8594,374.3281 Q753.8125,374.7813 752.5313,374.7813 Q751.0313,374.7813 749.8281,374.1875 Q748.8594,373.7188 748.1797,372.7031 Q747.5,371.6875 747.5,370.4844 L747.5,369.3906 Q747.5,368.1406 748.1016,367.0469 Q748.7031,365.9531 749.7578,365.3672 Q750.8125,364.7813 752,364.7813 Q752.7188,364.7813 753.3438,365.0313 Q753.9688,365.2813 754.5,365.7813 Z "/>
        <text fill="#000000" font-family="sans-serif" font-size="12" lengthAdjust="spacingAndGlyphs" textLength="84"
              x="766.5" y="374.1914">SurveyManager
        </text>
        <line style="stroke: #A80036; stroke-width: 1.5;" x1="738.5" x2="852.5" y1="385.2813" y2="385.2813"/>
        <line style="stroke: #A80036; stroke-width: 1.5;" x1="738.5" x2="852.5" y1="393.2813" y2="393.2813"/>
        <ellipse cx="748.5" cy="405.6992" fill="#84BE84" rx="3" ry="3" style="stroke: #038048; stroke-width: 1.0;"/>
        <text fill="#000000" font-family="sans-serif" font-size="11" lengthAdjust="spacingAndGlyphs" textLength="28"
              x="757.5" y="408.7002">take()
        </text>
        <ellipse cx="748.5" cy="419.5352" fill="#84BE84" rx="3" ry="3" style="stroke: #038048; stroke-width: 1.0;"/>
        <text fill="#000000" font-family="sans-serif" font-size="11" lengthAdjust="spacingAndGlyphs" textLength="25"
              x="757.5" y="422.5361">edit()
        </text>
        <ellipse cx="748.5" cy="433.3711" fill="#84BE84" rx="3" ry="3" style="stroke: #038048; stroke-width: 1.0;"/>
        <text fill="#000000" font-family="sans-serif" font-size="11" lengthAdjust="spacingAndGlyphs" textLength="37"
              x="757.5" y="436.3721">delete()
        </text>
        <ellipse cx="748.5" cy="447.207" fill="#84BE84" rx="3" ry="3" style="stroke: #038048; stroke-width: 1.0;"/>
        <text fill="#000000" font-family="sans-serif" font-size="11" lengthAdjust="spacingAndGlyphs" textLength="46"
              x="757.5" y="450.208">tabulate()
        </text>
        <ellipse cx="748.5" cy="461.043" fill="#84BE84" rx="3" ry="3" style="stroke: #038048; stroke-width: 1.0;"/>
        <text fill="#000000" font-family="sans-serif" font-size="11" lengthAdjust="spacingAndGlyphs" textLength="82"
              x="757.5" y="464.0439">showAnswers()
        </text><!--class Menu-->
        <rect fill="#FEFECE" filter="url(#f1to5a7z4xmpf4)" height="89.5078" id="Menu"
              style="stroke: #A80036; stroke-width: 1.5;" width="140" x="356.5" y="366.7813"/>
        <ellipse cx="407.25" cy="382.7813" fill="#A9DCDF" rx="11" ry="11" style="stroke: #A80036; stroke-width: 1.0;"/>
        <path d="M409,384.2813 L405.7031,384.2813 L405.2656,385.2813 L405.2656,385.2813 L405.7344,385.2813 L406.25,385.9063 L406.25,386.2813 L406.25,386.6563 L405.7344,387.2813 L405.2656,387.2813 L403.375,387.2813 L402.7656,387.2813 L402.25,386.6563 L402.25,386.2813 L402.25,385.9063 L402.7656,385.2813 L403.375,385.2813 L405.6875,379.2813 L404.8125,379.2813 L403.7656,379.2813 L403.25,378.6563 L403.25,378.2813 L403.25,377.9063 L403.7656,377.2813 L404.8125,377.2813 L408.4844,377.2813 L411.1719,385.2813 L411.7344,385.2813 L411.7344,385.2813 L412.25,385.9063 L412.25,386.2813 L412.25,386.6563 L411.7344,387.2813 L411.1719,387.2813 L409.2813,387.2813 L408.7656,387.2813 L408.25,386.6563 L408.25,386.2813 L408.25,385.9063 L408.7656,385.2813 L409.2813,385.2813 L409.2813,385.2813 L409,384.2813 Z M408.4531,382.2813 L407.25,378.7031 L406.2188,382.2813 L408.4531,382.2813 Z "/>
        <text fill="#000000" font-family="sans-serif" font-size="12" font-style="italic" lengthAdjust="spacingAndGlyphs"
              textLength="30" x="427.75" y="387.6914">Menu
        </text>
        <line style="stroke: #A80036; stroke-width: 1.5;" x1="357.5" x2="495.5" y1="398.7813" y2="398.7813"/>
        <polygon fill="none" points="367.5,406.1992,371.5,410.1992,367.5,414.1992,363.5,410.1992"
                 style="stroke: #B38D22; stroke-width: 1.0;"/>
        <text fill="#000000" font-family="sans-serif" font-size="11" lengthAdjust="spacingAndGlyphs" textLength="114"
              x="376.5" y="414.2002">Vector&lt;String&gt; choices
        </text>
        <line style="stroke: #A80036; stroke-width: 1.5;" x1="357.5" x2="495.5" y1="420.6172" y2="420.6172"/>
        <ellipse cx="367.5" cy="433.0352" fill="#84BE84" rx="3" ry="3" style="stroke: #038048; stroke-width: 1.0;"/>
        <text fill="#000000" font-family="sans-serif" font-size="11" lengthAdjust="spacingAndGlyphs" textLength="81"
              x="376.5" y="436.0361">displayChoices()
        </text>
        <ellipse cx="367.5" cy="446.8711" fill="#84BE84" rx="3" ry="3" style="stroke: #038048; stroke-width: 1.0;"/>
        <text fill="#000000" font-family="sans-serif" font-size="11" font-style="italic" lengthAdjust="spacingAndGlyphs"
              textLength="85" x="376.5" y="449.8721">selectChoice(int)
        </text><!--class Survey-->
        <rect fill="#FEFECE" filter="url(#f1to5a7z4xmpf4)" height="75.6719" id="Survey"
              style="stroke: #A80036; stroke-width: 1.5;" width="164" x="713.5" y="530.2813"/>
        <ellipse cx="773.25" cy="546.2813" fill="#ADD1B2" rx="11" ry="11" style="stroke: #A80036; stroke-width: 1.0;"/>
        <path d="M775.25,542.7813 Q775.4531,542.2813 775.6875,542.0313 Q775.9219,541.7813 776.1875,541.7813 Q776.6563,541.7813 776.9531,542.0625 Q777.25,542.3438 777.25,543 L777.25,544.5625 Q777.25,545.2188 776.9688,545.5 Q776.6875,545.7813 776.25,545.7813 Q775.8594,545.7813 775.6094,545.6094 Q775.3594,545.4375 775.25,544.9844 Q775.2031,544.6719 775.0313,544.5 Q774.7188,544.1719 774.1563,543.9766 Q773.5938,543.7813 773.0313,543.7813 Q772.3281,543.7813 771.7422,544.0625 Q771.1563,544.3438 770.7031,544.9688 Q770.25,545.5938 770.25,546.4531 L770.25,547.375 Q770.25,548.4063 771.0938,549.0938 Q771.9375,549.7813 773.4375,549.7813 Q774.3281,549.7813 774.9531,549.5781 Q775.3125,549.4688 775.7188,549.1094 Q775.9844,548.9063 776.125,548.8438 Q776.2656,548.7813 776.4375,548.7813 Q776.7656,548.7813 777.0078,549.0391 Q777.25,549.2969 777.25,549.6563 Q777.25,550 776.9063,550.4063 Q776.4063,551 775.6094,551.3281 Q774.5625,551.7813 773.2813,551.7813 Q771.7813,551.7813 770.5781,551.1875 Q769.6094,550.7188 768.9297,549.7031 Q768.25,548.6875 768.25,547.4844 L768.25,546.3906 Q768.25,545.1406 768.8516,544.0469 Q769.4531,542.9531 770.5078,542.3672 Q771.5625,541.7813 772.75,541.7813 Q773.4688,541.7813 774.0938,542.0313 Q774.7188,542.2813 775.25,542.7813 Z "/>
        <text fill="#000000" font-family="sans-serif" font-size="12" lengthAdjust="spacingAndGlyphs" textLength="36"
              x="793.75" y="551.1914">Survey
        </text>
        <line style="stroke: #A80036; stroke-width: 1.5;" x1="714.5" x2="876.5" y1="562.2813" y2="562.2813"/>
        <rect fill="none" height="6" style="stroke: #C82930; stroke-width: 1.0;" width="6" x="721.5" y="571.6992"/>
        <text fill="#000000" font-family="sans-serif" font-size="11" lengthAdjust="spacingAndGlyphs" textLength="57"
              x="733.5" y="577.7002">String name
        </text>
        <rect fill="none" height="6" style="stroke: #C82930; stroke-width: 1.0;" width="6" x="721.5" y="585.5352"/>
        <text fill="#000000" font-family="sans-serif" font-size="11" lengthAdjust="spacingAndGlyphs" textLength="138"
              x="733.5" y="591.5361">Vector&lt;Question&gt; questions
        </text>
        <line style="stroke: #A80036; stroke-width: 1.5;" x1="714.5" x2="876.5" y1="597.9531"
              y2="597.9531"/><!--class TestManager-->
        <rect fill="#FEFECE" filter="url(#f1to5a7z4xmpf4)" height="61.8359" id="TestManager"
              style="stroke: #A80036; stroke-width: 1.5;" width="104" x="912.5" y="537.2813"/>
        <ellipse cx="927.5" cy="553.2813" fill="#ADD1B2" rx="11" ry="11" style="stroke: #A80036; stroke-width: 1.0;"/>
        <path d="M929.5,549.7813 Q929.7031,549.2813 929.9375,549.0313 Q930.1719,548.7813 930.4375,548.7813 Q930.9063,548.7813 931.2031,549.0625 Q931.5,549.3438 931.5,550 L931.5,551.5625 Q931.5,552.2188 931.2188,552.5 Q930.9375,552.7813 930.5,552.7813 Q930.1094,552.7813 929.8594,552.6094 Q929.6094,552.4375 929.5,551.9844 Q929.4531,551.6719 929.2813,551.5 Q928.9688,551.1719 928.4063,550.9766 Q927.8438,550.7813 927.2813,550.7813 Q926.5781,550.7813 925.9922,551.0625 Q925.4063,551.3438 924.9531,551.9688 Q924.5,552.5938 924.5,553.4531 L924.5,554.375 Q924.5,555.4063 925.3438,556.0938 Q926.1875,556.7813 927.6875,556.7813 Q928.5781,556.7813 929.2031,556.5781 Q929.5625,556.4688 929.9688,556.1094 Q930.2344,555.9063 930.375,555.8438 Q930.5156,555.7813 930.6875,555.7813 Q931.0156,555.7813 931.2578,556.0391 Q931.5,556.2969 931.5,556.6563 Q931.5,557 931.1563,557.4063 Q930.6563,558 929.8594,558.3281 Q928.8125,558.7813 927.5313,558.7813 Q926.0313,558.7813 924.8281,558.1875 Q923.8594,557.7188 923.1797,556.7031 Q922.5,555.6875 922.5,554.4844 L922.5,553.3906 Q922.5,552.1406 923.1016,551.0469 Q923.7031,549.9531 924.7578,549.3672 Q925.8125,548.7813 927,548.7813 Q927.7188,548.7813 928.3438,549.0313 Q928.9688,549.2813 929.5,549.7813 Z "/>
        <text fill="#000000" font-family="sans-serif" font-size="12" lengthAdjust="spacingAndGlyphs" textLength="72"
              x="941.5" y="558.1914">TestManager
        </text>
        <line style="stroke: #A80036; stroke-width: 1.5;" x1="913.5" x2="1015.5" y1="569.2813" y2="569.2813"/>
        <line style="stroke: #A80036; stroke-width: 1.5;" x1="913.5" x2="1015.5" y1="577.2813" y2="577.2813"/>
        <ellipse cx="923.5" cy="589.6992" fill="#84BE84" rx="3" ry="3" style="stroke: #038048; stroke-width: 1.0;"/>
        <text fill="#000000" font-family="sans-serif" font-size="11" lengthAdjust="spacingAndGlyphs" textLength="36"
              x="932.5" y="592.7002">grade()
        </text><!--class Test-->
        <rect fill="#FEFECE" filter="url(#f1to5a7z4xmpf4)" height="75.6719" id="Test"
              style="stroke: #A80036; stroke-width: 1.5;" width="145" x="644" y="666.2813"/>
        <ellipse cx="700.25" cy="682.2813" fill="#ADD1B2" rx="11" ry="11" style="stroke: #A80036; stroke-width: 1.0;"/>
        <path d="M702.25,678.7813 Q702.4531,678.2813 702.6875,678.0313 Q702.9219,677.7813 703.1875,677.7813 Q703.6563,677.7813 703.9531,678.0625 Q704.25,678.3438 704.25,679 L704.25,680.5625 Q704.25,681.2188 703.9688,681.5 Q703.6875,681.7813 703.25,681.7813 Q702.8594,681.7813 702.6094,681.6094 Q702.3594,681.4375 702.25,680.9844 Q702.2031,680.6719 702.0313,680.5 Q701.7188,680.1719 701.1563,679.9766 Q700.5938,679.7813 700.0313,679.7813 Q699.3281,679.7813 698.7422,680.0625 Q698.1563,680.3438 697.7031,680.9688 Q697.25,681.5938 697.25,682.4531 L697.25,683.375 Q697.25,684.4063 698.0938,685.0938 Q698.9375,685.7813 700.4375,685.7813 Q701.3281,685.7813 701.9531,685.5781 Q702.3125,685.4688 702.7188,685.1094 Q702.9844,684.9063 703.125,684.8438 Q703.2656,684.7813 703.4375,684.7813 Q703.7656,684.7813 704.0078,685.0391 Q704.25,685.2969 704.25,685.6563 Q704.25,686 703.9063,686.4063 Q703.4063,687 702.6094,687.3281 Q701.5625,687.7813 700.2813,687.7813 Q698.7813,687.7813 697.5781,687.1875 Q696.6094,686.7188 695.9297,685.7031 Q695.25,684.6875 695.25,683.4844 L695.25,682.3906 Q695.25,681.1406 695.8516,680.0469 Q696.4531,678.9531 697.5078,678.3672 Q698.5625,677.7813 699.75,677.7813 Q700.4688,677.7813 701.0938,678.0313 Q701.7188,678.2813 702.25,678.7813 Z "/>
        <text fill="#000000" font-family="sans-serif" font-size="12" lengthAdjust="spacingAndGlyphs" textLength="24"
              x="720.75" y="687.1914">Test
        </text>
        <line style="stroke: #A80036; stroke-width: 1.5;" x1="645" x2="788" y1="698.2813" y2="698.2813"/>
        <rect fill="none" height="6" style="stroke: #C82930; stroke-width: 1.0;" width="6" x="652" y="707.6992"/>
        <text fill="#000000" font-family="sans-serif" font-size="11" lengthAdjust="spacingAndGlyphs" textLength="119"
              x="664" y="713.7002">Vector&lt;Response&gt; RCA
        </text>
        <line style="stroke: #A80036; stroke-width: 1.5;" x1="645" x2="788" y1="720.1172" y2="720.1172"/>
        <ellipse cx="655" cy="732.5352" fill="#84BE84" rx="3" ry="3" style="stroke: #038048; stroke-width: 1.0;"/>
        <text fill="#000000" font-family="sans-serif" font-size="11" lengthAdjust="spacingAndGlyphs" textLength="36"
              x="664" y="735.5361">grade()
        </text><!--class Response-->
        <rect fill="#FEFECE" filter="url(#f1to5a7z4xmpf4)" height="75.6719" id="Response"
              style="stroke: #A80036; stroke-width: 1.5;" width="121" x="640" y="809.2813"/>
        <ellipse cx="669.85" cy="825.2813" fill="#A9DCDF" rx="11" ry="11" style="stroke: #A80036; stroke-width: 1.0;"/>
        <path d="M671.6,826.7813 L668.3031,826.7813 L667.8656,827.7813 L667.8656,827.7813 L668.3344,827.7813 L668.85,828.4063 L668.85,828.7813 L668.85,829.1563 L668.3344,829.7813 L667.8656,829.7813 L665.975,829.7813 L665.3656,829.7813 L664.85,829.1563 L664.85,828.7813 L664.85,828.4063 L665.3656,827.7813 L665.975,827.7813 L668.2875,821.7813 L667.4125,821.7813 L666.3656,821.7813 L665.85,821.1563 L665.85,820.7813 L665.85,820.4063 L666.3656,819.7813 L667.4125,819.7813 L671.0844,819.7813 L673.7719,827.7813 L674.3344,827.7813 L674.3344,827.7813 L674.85,828.4063 L674.85,828.7813 L674.85,829.1563 L674.3344,829.7813 L673.7719,829.7813 L671.8813,829.7813 L671.3656,829.7813 L670.85,829.1563 L670.85,828.7813 L670.85,828.4063 L671.3656,827.7813 L671.8813,827.7813 L671.8813,827.7813 L671.6,826.7813 Z M671.0531,824.7813 L669.85,821.2031 L668.8188,824.7813 L671.0531,824.7813 Z "/>
        <text fill="#000000" font-family="sans-serif" font-size="12" font-style="italic" lengthAdjust="spacingAndGlyphs"
              textLength="56" x="687.15" y="830.1914">Response
        </text>
        <line style="stroke: #A80036; stroke-width: 1.5;" x1="641" x2="760" y1="841.2813" y2="841.2813"/>
        <line style="stroke: #A80036; stroke-width: 1.5;" x1="641" x2="760" y1="849.2813" y2="849.2813"/>
        <ellipse cx="651" cy="861.6992" fill="#84BE84" rx="3" ry="3" style="stroke: #038048; stroke-width: 1.0;"/>
        <text fill="#000000" font-family="sans-serif" font-size="11" lengthAdjust="spacingAndGlyphs" textLength="95"
              x="660" y="864.7002">getUserResponse()
        </text>
        <ellipse cx="651" cy="875.5352" fill="#84BE84" rx="3" ry="3" style="stroke: #038048; stroke-width: 1.0;"/>
        <text fill="#000000" font-family="sans-serif" font-size="11" font-style="italic" lengthAdjust="spacingAndGlyphs"
              textLength="82" x="660" y="878.5361">compareTo(): int
        </text><!--class Question-->
        <rect fill="#FEFECE" filter="url(#f1to5a7z4xmpf4)" height="89.5078" id="Question"
              style="stroke: #A80036; stroke-width: 1.5;" width="149" x="815" y="802.2813"/>
        <ellipse cx="860.75" cy="818.2813" fill="#A9DCDF" rx="11" ry="11" style="stroke: #A80036; stroke-width: 1.0;"/>
        <path d="M862.5,819.7813 L859.2031,819.7813 L858.7656,820.7813 L858.7656,820.7813 L859.2344,820.7813 L859.75,821.4063 L859.75,821.7813 L859.75,822.1563 L859.2344,822.7813 L858.7656,822.7813 L856.875,822.7813 L856.2656,822.7813 L855.75,822.1563 L855.75,821.7813 L855.75,821.4063 L856.2656,820.7813 L856.875,820.7813 L859.1875,814.7813 L858.3125,814.7813 L857.2656,814.7813 L856.75,814.1563 L856.75,813.7813 L856.75,813.4063 L857.2656,812.7813 L858.3125,812.7813 L861.9844,812.7813 L864.6719,820.7813 L865.2344,820.7813 L865.2344,820.7813 L865.75,821.4063 L865.75,821.7813 L865.75,822.1563 L865.2344,822.7813 L864.6719,822.7813 L862.7813,822.7813 L862.2656,822.7813 L861.75,822.1563 L861.75,821.7813 L861.75,821.4063 L862.2656,820.7813 L862.7813,820.7813 L862.7813,820.7813 L862.5,819.7813 Z M861.9531,817.7813 L860.75,814.2031 L859.7188,817.7813 L861.9531,817.7813 Z "/>
        <text fill="#000000" font-family="sans-serif" font-size="12" font-style="italic" lengthAdjust="spacingAndGlyphs"
              textLength="49" x="881.25" y="823.1914">Question
        </text>
        <line style="stroke: #A80036; stroke-width: 1.5;" x1="816" x2="963" y1="834.2813" y2="834.2813"/>
        <polygon fill="none" points="826,841.6992,830,845.6992,826,849.6992,822,845.6992"
                 style="stroke: #B38D22; stroke-width: 1.0;"/>
        <text fill="#000000" font-family="sans-serif" font-size="11" lengthAdjust="spacingAndGlyphs" textLength="64"
              x="835" y="849.7002">String prompt
        </text>
        <line style="stroke: #A80036; stroke-width: 1.5;" x1="816" x2="963" y1="856.1172" y2="856.1172"/>
        <polygon fill="#FFFF44" points="826,863.5352,830,867.5352,826,871.5352,822,867.5352"
                 style="stroke: #B38D22; stroke-width: 1.0;"/>
        <text fill="#000000" font-family="sans-serif" font-size="11" font-style="italic" lengthAdjust="spacingAndGlyphs"
              textLength="123" x="835" y="871.5361">displayQuestion(): String
        </text>
        <polygon fill="#FFFF44" points="826,877.3711,830,881.3711,826,885.3711,822,881.3711"
                 style="stroke: #B38D22; stroke-width: 1.0;"/>
        <text fill="#000000" font-family="sans-serif" font-size="11" font-style="italic" lengthAdjust="spacingAndGlyphs"
              textLength="123" x="835" y="885.3721">answerQuestion(String?)
        </text><!--class MCQuestion-->
        <rect fill="#FEFECE" filter="url(#f1to5a7z4xmpf4)" height="89.5078" id="MCQuestion"
              style="stroke: #A80036; stroke-width: 1.5;" width="112" x="1400.5" y="952.2813"/>
        <ellipse cx="1420.9" cy="968.2813" fill="#ADD1B2" rx="11" ry="11" style="stroke: #A80036; stroke-width: 1.0;"/>
        <path d="M1422.9,964.7813 Q1423.1031,964.2813 1423.3375,964.0313 Q1423.5719,963.7813 1423.8375,963.7813 Q1424.3063,963.7813 1424.6031,964.0625 Q1424.9,964.3438 1424.9,965 L1424.9,966.5625 Q1424.9,967.2188 1424.6188,967.5 Q1424.3375,967.7813 1423.9,967.7813 Q1423.5094,967.7813 1423.2594,967.6094 Q1423.0094,967.4375 1422.9,966.9844 Q1422.8531,966.6719 1422.6813,966.5 Q1422.3688,966.1719 1421.8063,965.9766 Q1421.2438,965.7813 1420.6813,965.7813 Q1419.9781,965.7813 1419.3922,966.0625 Q1418.8063,966.3438 1418.3531,966.9688 Q1417.9,967.5938 1417.9,968.4531 L1417.9,969.375 Q1417.9,970.4063 1418.7438,971.0938 Q1419.5875,971.7813 1421.0875,971.7813 Q1421.9781,971.7813 1422.6031,971.5781 Q1422.9625,971.4688 1423.3688,971.1094 Q1423.6344,970.9063 1423.775,970.8438 Q1423.9156,970.7813 1424.0875,970.7813 Q1424.4156,970.7813 1424.6578,971.0391 Q1424.9,971.2969 1424.9,971.6563 Q1424.9,972 1424.5563,972.4063 Q1424.0563,973 1423.2594,973.3281 Q1422.2125,973.7813 1420.9313,973.7813 Q1419.4313,973.7813 1418.2281,973.1875 Q1417.2594,972.7188 1416.5797,971.7031 Q1415.9,970.6875 1415.9,969.4844 L1415.9,968.3906 Q1415.9,967.1406 1416.5016,966.0469 Q1417.1031,964.9531 1418.1578,964.3672 Q1419.2125,963.7813 1420.4,963.7813 Q1421.1188,963.7813 1421.7438,964.0313 Q1422.3688,964.2813 1422.9,964.7813 Z "/>
        <text fill="#000000" font-family="sans-serif" font-size="12" lengthAdjust="spacingAndGlyphs" textLength="68"
              x="1436.1" y="973.1914">MCQuestion
        </text>
        <line style="stroke: #A80036; stroke-width: 1.5;" x1="1401.5" x2="1511.5" y1="984.2813" y2="984.2813"/>
        <line style="stroke: #A80036; stroke-width: 1.5;" x1="1401.5" x2="1511.5" y1="992.2813" y2="992.2813"/>
        <ellipse cx="1411.5" cy="1004.6992" fill="#84BE84" rx="3" ry="3" style="stroke: #038048; stroke-width: 1.0;"/>
        <text fill="#000000" font-family="sans-serif" font-size="11" lengthAdjust="spacingAndGlyphs" textLength="75"
              x="1420.5" y="1007.7002">displayPrompt()
        </text>
        <ellipse cx="1411.5" cy="1018.5352" fill="#84BE84" rx="3" ry="3" style="stroke: #038048; stroke-width: 1.0;"/>
        <text fill="#000000" font-family="sans-serif" font-size="11" lengthAdjust="spacingAndGlyphs" textLength="85"
              x="1420.5" y="1021.5361">displayQuestion()
        </text>
        <ellipse cx="1411.5" cy="1032.3711" fill="#84BE84" rx="3" ry="3" style="stroke: #038048; stroke-width: 1.0;"/>
        <text fill="#000000" font-family="sans-serif" font-size="11" lengthAdjust="spacingAndGlyphs" textLength="86"
              x="1420.5" y="1035.3721">getUserAnswer()
        </text><!--class TFQuestion-->
        <rect fill="#FEFECE" filter="url(#f1to5a7z4xmpf4)" height="103.3438" id="TFQuestion"
              style="stroke: #A80036; stroke-width: 1.5;" width="153" x="1433" y="1102.2813"/>
        <ellipse cx="1473.65" cy="1118.2813" fill="#ADD1B2" rx="11" ry="11"
                 style="stroke: #A80036; stroke-width: 1.0;"/>
        <path d="M1475.65,1114.7813 Q1475.8531,1114.2813 1476.0875,1114.0313 Q1476.3219,1113.7813 1476.5875,1113.7813 Q1477.0563,1113.7813 1477.3531,1114.0625 Q1477.65,1114.3438 1477.65,1115 L1477.65,1116.5625 Q1477.65,1117.2188 1477.3688,1117.5 Q1477.0875,1117.7813 1476.65,1117.7813 Q1476.2594,1117.7813 1476.0094,1117.6094 Q1475.7594,1117.4375 1475.65,1116.9844 Q1475.6031,1116.6719 1475.4313,1116.5 Q1475.1188,1116.1719 1474.5563,1115.9766 Q1473.9938,1115.7813 1473.4313,1115.7813 Q1472.7281,1115.7813 1472.1422,1116.0625 Q1471.5563,1116.3438 1471.1031,1116.9688 Q1470.65,1117.5938 1470.65,1118.4531 L1470.65,1119.375 Q1470.65,1120.4063 1471.4938,1121.0938 Q1472.3375,1121.7813 1473.8375,1121.7813 Q1474.7281,1121.7813 1475.3531,1121.5781 Q1475.7125,1121.4688 1476.1188,1121.1094 Q1476.3844,1120.9063 1476.525,1120.8438 Q1476.6656,1120.7813 1476.8375,1120.7813 Q1477.1656,1120.7813 1477.4078,1121.0391 Q1477.65,1121.2969 1477.65,1121.6563 Q1477.65,1122 1477.3063,1122.4063 Q1476.8063,1123 1476.0094,1123.3281 Q1474.9625,1123.7813 1473.6813,1123.7813 Q1472.1813,1123.7813 1470.9781,1123.1875 Q1470.0094,1122.7188 1469.3297,1121.7031 Q1468.65,1120.6875 1468.65,1119.4844 L1468.65,1118.3906 Q1468.65,1117.1406 1469.2516,1116.0469 Q1469.8531,1114.9531 1470.9078,1114.3672 Q1471.9625,1113.7813 1473.15,1113.7813 Q1473.8688,1113.7813 1474.4938,1114.0313 Q1475.1188,1114.2813 1475.65,1114.7813 Z "/>
        <text fill="#000000" font-family="sans-serif" font-size="12" lengthAdjust="spacingAndGlyphs" textLength="64"
              x="1493.35" y="1123.1914">TFQuestion
        </text>
        <line style="stroke: #A80036; stroke-width: 1.5;" x1="1434" x2="1585" y1="1134.2813" y2="1134.2813"/>
        <rect fill="none" height="6" style="stroke: #C82930; stroke-width: 1.0;" width="6" x="1441" y="1143.6992"/>
        <text fill="#000000" font-family="sans-serif" font-size="11" lengthAdjust="spacingAndGlyphs" textLength="91"
              x="1453" y="1149.7002">int maxChoices = 2
        </text>
        <line style="stroke: #A80036; stroke-width: 1.5;" x1="1434" x2="1585" y1="1156.1172" y2="1156.1172"/>
        <ellipse cx="1444" cy="1168.5352" fill="#84BE84" rx="3" ry="3" style="stroke: #038048; stroke-width: 1.0;"/>
        <text fill="#000000" font-family="sans-serif" font-size="11" lengthAdjust="spacingAndGlyphs" textLength="127"
              x="1453" y="1171.5361">TFQuestion(Prompt:String)
        </text>
        <ellipse cx="1444" cy="1182.3711" fill="#84BE84" rx="3" ry="3" style="stroke: #038048; stroke-width: 1.0;"/>
        <text fill="#000000" font-family="sans-serif" font-size="11" lengthAdjust="spacingAndGlyphs" textLength="119"
              x="1453" y="1185.3721">displayQuestion(): String
        </text>
        <ellipse cx="1444" cy="1196.207" fill="#84BE84" rx="3" ry="3" style="stroke: #038048; stroke-width: 1.0;"/>
        <text fill="#000000" font-family="sans-serif" font-size="11" lengthAdjust="spacingAndGlyphs" textLength="86"
              x="1453" y="1199.208">getUserAnswer()
        </text><!--class RankingQuestion-->
        <rect fill="#FEFECE" filter="url(#f1to5a7z4xmpf4)" height="89.5078" id="RankingQuestion"
              style="stroke: #A80036; stroke-width: 1.5;" width="303" x="1010" y="952.2813"/>
        <ellipse cx="1109.25" cy="968.2813" fill="#ADD1B2" rx="11" ry="11" style="stroke: #A80036; stroke-width: 1.0;"/>
        <path d="M1111.25,964.7813 Q1111.4531,964.2813 1111.6875,964.0313 Q1111.9219,963.7813 1112.1875,963.7813 Q1112.6563,963.7813 1112.9531,964.0625 Q1113.25,964.3438 1113.25,965 L1113.25,966.5625 Q1113.25,967.2188 1112.9688,967.5 Q1112.6875,967.7813 1112.25,967.7813 Q1111.8594,967.7813 1111.6094,967.6094 Q1111.3594,967.4375 1111.25,966.9844 Q1111.2031,966.6719 1111.0313,966.5 Q1110.7188,966.1719 1110.1563,965.9766 Q1109.5938,965.7813 1109.0313,965.7813 Q1108.3281,965.7813 1107.7422,966.0625 Q1107.1563,966.3438 1106.7031,966.9688 Q1106.25,967.5938 1106.25,968.4531 L1106.25,969.375 Q1106.25,970.4063 1107.0938,971.0938 Q1107.9375,971.7813 1109.4375,971.7813 Q1110.3281,971.7813 1110.9531,971.5781 Q1111.3125,971.4688 1111.7188,971.1094 Q1111.9844,970.9063 1112.125,970.8438 Q1112.2656,970.7813 1112.4375,970.7813 Q1112.7656,970.7813 1113.0078,971.0391 Q1113.25,971.2969 1113.25,971.6563 Q1113.25,972 1112.9063,972.4063 Q1112.4063,973 1111.6094,973.3281 Q1110.5625,973.7813 1109.2813,973.7813 Q1107.7813,973.7813 1106.5781,973.1875 Q1105.6094,972.7188 1104.9297,971.7031 Q1104.25,970.6875 1104.25,969.4844 L1104.25,968.3906 Q1104.25,967.1406 1104.8516,966.0469 Q1105.4531,964.9531 1106.5078,964.3672 Q1107.5625,963.7813 1108.75,963.7813 Q1109.4688,963.7813 1110.0938,964.0313 Q1110.7188,964.2813 1111.25,964.7813 Z "/>
        <text fill="#000000" font-family="sans-serif" font-size="12" lengthAdjust="spacingAndGlyphs" textLength="96"
              x="1129.75" y="973.1914">RankingQuestion
        </text>
        <line style="stroke: #A80036; stroke-width: 1.5;" x1="1011" x2="1312" y1="984.2813" y2="984.2813"/>
        <line style="stroke: #A80036; stroke-width: 1.5;" x1="1011" x2="1312" y1="992.2813" y2="992.2813"/>
        <ellipse cx="1021" cy="1004.6992" fill="#84BE84" rx="3" ry="3" style="stroke: #038048; stroke-width: 1.0;"/>
        <text fill="#000000" font-family="sans-serif" font-size="11" lengthAdjust="spacingAndGlyphs" textLength="277"
              x="1030" y="1007.7002">RankingQuestion(Prompt:String, Choices: Vector&lt;String&gt;)
        </text>
        <ellipse cx="1021" cy="1018.5352" fill="#84BE84" rx="3" ry="3" style="stroke: #038048; stroke-width: 1.0;"/>
        <text fill="#000000" font-family="sans-serif" font-size="11" lengthAdjust="spacingAndGlyphs" textLength="119"
              x="1030" y="1021.5361">displayQuestion(): String
        </text>
        <ellipse cx="1021" cy="1032.3711" fill="#84BE84" rx="3" ry="3" style="stroke: #038048; stroke-width: 1.0;"/>
        <text fill="#000000" font-family="sans-serif" font-size="11" lengthAdjust="spacingAndGlyphs" textLength="86"
              x="1030" y="1035.3721">getUserAnswer()
        </text><!--class MatchingQuestion-->
        <rect fill="#FEFECE" filter="url(#f1to5a7z4xmpf4)" height="89.5078" id="MatchingQuestion"
              style="stroke: #A80036; stroke-width: 1.5;" width="473" x="925" y="1108.7813"/>
        <ellipse cx="1107.75" cy="1124.7813" fill="#ADD1B2" rx="11" ry="11"
                 style="stroke: #A80036; stroke-width: 1.0;"/>
        <path d="M1109.75,1121.2813 Q1109.9531,1120.7813 1110.1875,1120.5313 Q1110.4219,1120.2813 1110.6875,1120.2813 Q1111.1563,1120.2813 1111.4531,1120.5625 Q1111.75,1120.8438 1111.75,1121.5 L1111.75,1123.0625 Q1111.75,1123.7188 1111.4688,1124 Q1111.1875,1124.2813 1110.75,1124.2813 Q1110.3594,1124.2813 1110.1094,1124.1094 Q1109.8594,1123.9375 1109.75,1123.4844 Q1109.7031,1123.1719 1109.5313,1123 Q1109.2188,1122.6719 1108.6563,1122.4766 Q1108.0938,1122.2813 1107.5313,1122.2813 Q1106.8281,1122.2813 1106.2422,1122.5625 Q1105.6563,1122.8438 1105.2031,1123.4688 Q1104.75,1124.0938 1104.75,1124.9531 L1104.75,1125.875 Q1104.75,1126.9063 1105.5938,1127.5938 Q1106.4375,1128.2813 1107.9375,1128.2813 Q1108.8281,1128.2813 1109.4531,1128.0781 Q1109.8125,1127.9688 1110.2188,1127.6094 Q1110.4844,1127.4063 1110.625,1127.3438 Q1110.7656,1127.2813 1110.9375,1127.2813 Q1111.2656,1127.2813 1111.5078,1127.5391 Q1111.75,1127.7969 1111.75,1128.1563 Q1111.75,1128.5 1111.4063,1128.9063 Q1110.9063,1129.5 1110.1094,1129.8281 Q1109.0625,1130.2813 1107.7813,1130.2813 Q1106.2813,1130.2813 1105.0781,1129.6875 Q1104.1094,1129.2188 1103.4297,1128.2031 Q1102.75,1127.1875 1102.75,1125.9844 L1102.75,1124.8906 Q1102.75,1123.6406 1103.3516,1122.5469 Q1103.9531,1121.4531 1105.0078,1120.8672 Q1106.0625,1120.2813 1107.25,1120.2813 Q1107.9688,1120.2813 1108.5938,1120.5313 Q1109.2188,1120.7813 1109.75,1121.2813 Z "/>
        <text fill="#000000" font-family="sans-serif" font-size="12" lengthAdjust="spacingAndGlyphs" textLength="99"
              x="1128.25" y="1129.6914">MatchingQuestion
        </text>
        <line style="stroke: #A80036; stroke-width: 1.5;" x1="926" x2="1397" y1="1140.7813" y2="1140.7813"/>
        <line style="stroke: #A80036; stroke-width: 1.5;" x1="926" x2="1397" y1="1148.7813" y2="1148.7813"/>
        <ellipse cx="936" cy="1161.1992" fill="#84BE84" rx="3" ry="3" style="stroke: #038048; stroke-width: 1.0;"/>
        <text fill="#000000" font-family="sans-serif" font-size="11" lengthAdjust="spacingAndGlyphs" textLength="447"
              x="945" y="1164.2002">MatchingQuestion(Prompt:String, Choices: Vector&lt;String&gt;, MatchedChoices:
            Vector&lt;String&gt;)
        </text>
        <ellipse cx="936" cy="1175.0352" fill="#84BE84" rx="3" ry="3" style="stroke: #038048; stroke-width: 1.0;"/>
        <text fill="#000000" font-family="sans-serif" font-size="11" lengthAdjust="spacingAndGlyphs" textLength="119"
              x="945" y="1178.0361">displayQuestion(): String
        </text>
        <ellipse cx="936" cy="1188.8711" fill="#84BE84" rx="3" ry="3" style="stroke: #038048; stroke-width: 1.0;"/>
        <text fill="#000000" font-family="sans-serif" font-size="11" lengthAdjust="spacingAndGlyphs" textLength="86"
              x="945" y="1191.8721">getUserAnswer()
        </text><!--class EssayQuestion-->
        <rect fill="#FEFECE" filter="url(#f1to5a7z4xmpf4)" height="89.5078" id="EssayQuestion"
              style="stroke: #A80036; stroke-width: 1.5;" width="171" x="804" y="952.2813"/>
        <ellipse cx="843.75" cy="968.2813" fill="#ADD1B2" rx="11" ry="11" style="stroke: #A80036; stroke-width: 1.0;"/>
        <path d="M845.75,964.7813 Q845.9531,964.2813 846.1875,964.0313 Q846.4219,963.7813 846.6875,963.7813 Q847.1563,963.7813 847.4531,964.0625 Q847.75,964.3438 847.75,965 L847.75,966.5625 Q847.75,967.2188 847.4688,967.5 Q847.1875,967.7813 846.75,967.7813 Q846.3594,967.7813 846.1094,967.6094 Q845.8594,967.4375 845.75,966.9844 Q845.7031,966.6719 845.5313,966.5 Q845.2188,966.1719 844.6563,965.9766 Q844.0938,965.7813 843.5313,965.7813 Q842.8281,965.7813 842.2422,966.0625 Q841.6563,966.3438 841.2031,966.9688 Q840.75,967.5938 840.75,968.4531 L840.75,969.375 Q840.75,970.4063 841.5938,971.0938 Q842.4375,971.7813 843.9375,971.7813 Q844.8281,971.7813 845.4531,971.5781 Q845.8125,971.4688 846.2188,971.1094 Q846.4844,970.9063 846.625,970.8438 Q846.7656,970.7813 846.9375,970.7813 Q847.2656,970.7813 847.5078,971.0391 Q847.75,971.2969 847.75,971.6563 Q847.75,972 847.4063,972.4063 Q846.9063,973 846.1094,973.3281 Q845.0625,973.7813 843.7813,973.7813 Q842.2813,973.7813 841.0781,973.1875 Q840.1094,972.7188 839.4297,971.7031 Q838.75,970.6875 838.75,969.4844 L838.75,968.3906 Q838.75,967.1406 839.3516,966.0469 Q839.9531,964.9531 841.0078,964.3672 Q842.0625,963.7813 843.25,963.7813 Q843.9688,963.7813 844.5938,964.0313 Q845.2188,964.2813 845.75,964.7813 Z "/>
        <text fill="#000000" font-family="sans-serif" font-size="12" lengthAdjust="spacingAndGlyphs" textLength="84"
              x="863.25" y="973.1914">EssayQuestion
        </text>
        <line style="stroke: #A80036; stroke-width: 1.5;" x1="805" x2="974" y1="984.2813" y2="984.2813"/>
        <line style="stroke: #A80036; stroke-width: 1.5;" x1="805" x2="974" y1="992.2813" y2="992.2813"/>
        <ellipse cx="815" cy="1004.6992" fill="#84BE84" rx="3" ry="3" style="stroke: #038048; stroke-width: 1.0;"/>
        <text fill="#000000" font-family="sans-serif" font-size="11" lengthAdjust="spacingAndGlyphs" textLength="145"
              x="824" y="1007.7002">EssayQuestion(Prompt:String)
        </text>
        <ellipse cx="815" cy="1018.5352" fill="#84BE84" rx="3" ry="3" style="stroke: #038048; stroke-width: 1.0;"/>
        <text fill="#000000" font-family="sans-serif" font-size="11" lengthAdjust="spacingAndGlyphs" textLength="119"
              x="824" y="1021.5361">displayQuestion(): String
        </text>
        <ellipse cx="815" cy="1032.3711" fill="#84BE84" rx="3" ry="3" style="stroke: #038048; stroke-width: 1.0;"/>
        <text fill="#000000" font-family="sans-serif" font-size="11" lengthAdjust="spacingAndGlyphs" textLength="86"
              x="824" y="1035.3721">getUserAnswer()
        </text><!--class ShortAnswerQuestion-->
        <rect fill="#FEFECE" filter="url(#f1to5a7z4xmpf4)" height="89.5078" id="ShortAnswerQuestion"
              style="stroke: #A80036; stroke-width: 1.5;" width="207" x="683" y="1108.7813"/>
        <ellipse cx="722.75" cy="1124.7813" fill="#ADD1B2" rx="11" ry="11" style="stroke: #A80036; stroke-width: 1.0;"/>
        <path d="M724.75,1121.2813 Q724.9531,1120.7813 725.1875,1120.5313 Q725.4219,1120.2813 725.6875,1120.2813 Q726.1563,1120.2813 726.4531,1120.5625 Q726.75,1120.8438 726.75,1121.5 L726.75,1123.0625 Q726.75,1123.7188 726.4688,1124 Q726.1875,1124.2813 725.75,1124.2813 Q725.3594,1124.2813 725.1094,1124.1094 Q724.8594,1123.9375 724.75,1123.4844 Q724.7031,1123.1719 724.5313,1123 Q724.2188,1122.6719 723.6563,1122.4766 Q723.0938,1122.2813 722.5313,1122.2813 Q721.8281,1122.2813 721.2422,1122.5625 Q720.6563,1122.8438 720.2031,1123.4688 Q719.75,1124.0938 719.75,1124.9531 L719.75,1125.875 Q719.75,1126.9063 720.5938,1127.5938 Q721.4375,1128.2813 722.9375,1128.2813 Q723.8281,1128.2813 724.4531,1128.0781 Q724.8125,1127.9688 725.2188,1127.6094 Q725.4844,1127.4063 725.625,1127.3438 Q725.7656,1127.2813 725.9375,1127.2813 Q726.2656,1127.2813 726.5078,1127.5391 Q726.75,1127.7969 726.75,1128.1563 Q726.75,1128.5 726.4063,1128.9063 Q725.9063,1129.5 725.1094,1129.8281 Q724.0625,1130.2813 722.7813,1130.2813 Q721.2813,1130.2813 720.0781,1129.6875 Q719.1094,1129.2188 718.4297,1128.2031 Q717.75,1127.1875 717.75,1125.9844 L717.75,1124.8906 Q717.75,1123.6406 718.3516,1122.5469 Q718.9531,1121.4531 720.0078,1120.8672 Q721.0625,1120.2813 722.25,1120.2813 Q722.9688,1120.2813 723.5938,1120.5313 Q724.2188,1120.7813 724.75,1121.2813 Z "/>
        <text fill="#000000" font-family="sans-serif" font-size="12" lengthAdjust="spacingAndGlyphs" textLength="120"
              x="742.25" y="1129.6914">ShortAnswerQuestion
        </text>
        <line style="stroke: #A80036; stroke-width: 1.5;" x1="684" x2="889" y1="1140.7813" y2="1140.7813"/>
        <rect fill="none" height="6" style="stroke: #C82930; stroke-width: 1.0;" width="6" x="691" y="1150.1992"/>
        <text fill="#000000" font-family="sans-serif" font-size="11" lengthAdjust="spacingAndGlyphs" textLength="58"
              x="703" y="1156.2002">int CharLimit
        </text>
        <line style="stroke: #A80036; stroke-width: 1.5;" x1="684" x2="889" y1="1162.6172" y2="1162.6172"/>
        <ellipse cx="694" cy="1175.0352" fill="#84BE84" rx="3" ry="3" style="stroke: #038048; stroke-width: 1.0;"/>
        <text fill="#000000" font-family="sans-serif" font-size="11" lengthAdjust="spacingAndGlyphs" textLength="181"
              x="703" y="1178.0361">ShortAnswerQuestion(Prompt:String)
        </text>
        <ellipse cx="694" cy="1188.8711" fill="#84BE84" rx="3" ry="3" style="stroke: #038048; stroke-width: 1.0;"/>
        <text fill="#000000" font-family="sans-serif" font-size="11" lengthAdjust="spacingAndGlyphs" textLength="86"
              x="703" y="1191.8721">getUserAnswer()
        </text><!--class IntResponse-->
        <rect fill="#FEFECE" filter="url(#f1to5a7z4xmpf4)" height="75.6719" id="IntResponse"
              style="stroke: #A80036; stroke-width: 1.5;" width="136" x="290.5" y="959.2813"/>
        <ellipse cx="320.35" cy="975.2813" fill="#ADD1B2" rx="11" ry="11" style="stroke: #A80036; stroke-width: 1.0;"/>
        <path d="M322.35,971.7813 Q322.5531,971.2813 322.7875,971.0313 Q323.0219,970.7813 323.2875,970.7813 Q323.7563,970.7813 324.0531,971.0625 Q324.35,971.3438 324.35,972 L324.35,973.5625 Q324.35,974.2188 324.0688,974.5 Q323.7875,974.7813 323.35,974.7813 Q322.9594,974.7813 322.7094,974.6094 Q322.4594,974.4375 322.35,973.9844 Q322.3031,973.6719 322.1313,973.5 Q321.8188,973.1719 321.2563,972.9766 Q320.6938,972.7813 320.1313,972.7813 Q319.4281,972.7813 318.8422,973.0625 Q318.2563,973.3438 317.8031,973.9688 Q317.35,974.5938 317.35,975.4531 L317.35,976.375 Q317.35,977.4063 318.1938,978.0938 Q319.0375,978.7813 320.5375,978.7813 Q321.4281,978.7813 322.0531,978.5781 Q322.4125,978.4688 322.8188,978.1094 Q323.0844,977.9063 323.225,977.8438 Q323.3656,977.7813 323.5375,977.7813 Q323.8656,977.7813 324.1078,978.0391 Q324.35,978.2969 324.35,978.6563 Q324.35,979 324.0063,979.4063 Q323.5063,980 322.7094,980.3281 Q321.6625,980.7813 320.3813,980.7813 Q318.8813,980.7813 317.6781,980.1875 Q316.7094,979.7188 316.0297,978.7031 Q315.35,977.6875 315.35,976.4844 L315.35,975.3906 Q315.35,974.1406 315.9516,973.0469 Q316.5531,971.9531 317.6078,971.3672 Q318.6625,970.7813 319.85,970.7813 Q320.5688,970.7813 321.1938,971.0313 Q321.8188,971.2813 322.35,971.7813 Z "/>
        <text fill="#000000" font-family="sans-serif" font-size="12" lengthAdjust="spacingAndGlyphs" textLength="71"
              x="337.65" y="980.1914">IntResponse
        </text>
        <line style="stroke: #A80036; stroke-width: 1.5;" x1="291.5" x2="425.5" y1="991.2813" y2="991.2813"/>
        <rect fill="none" height="6" style="stroke: #C82930; stroke-width: 1.0;" width="6" x="298.5" y="1000.6992"/>
        <text fill="#000000" font-family="sans-serif" font-size="11" lengthAdjust="spacingAndGlyphs" textLength="60"
              x="310.5" y="1006.7002">int response
        </text>
        <line style="stroke: #A80036; stroke-width: 1.5;" x1="291.5" x2="425.5" y1="1013.1172" y2="1013.1172"/>
        <ellipse cx="301.5" cy="1025.5352" fill="#84BE84" rx="3" ry="3" style="stroke: #038048; stroke-width: 1.0;"/>
        <text fill="#000000" font-family="sans-serif" font-size="11" lengthAdjust="spacingAndGlyphs" textLength="110"
              x="310.5" y="1028.5361">compareTo(Object): int
        </text><!--class StringResponse-->
        <rect fill="#FEFECE" filter="url(#f1to5a7z4xmpf4)" height="75.6719" id="StringResponse"
              style="stroke: #A80036; stroke-width: 1.5;" width="136" x="461.5" y="959.2813"/>
        <ellipse cx="482.8" cy="975.2813" fill="#ADD1B2" rx="11" ry="11" style="stroke: #A80036; stroke-width: 1.0;"/>
        <path d="M484.8,971.7813 Q485.0031,971.2813 485.2375,971.0313 Q485.4719,970.7813 485.7375,970.7813 Q486.2063,970.7813 486.5031,971.0625 Q486.8,971.3438 486.8,972 L486.8,973.5625 Q486.8,974.2188 486.5188,974.5 Q486.2375,974.7813 485.8,974.7813 Q485.4094,974.7813 485.1594,974.6094 Q484.9094,974.4375 484.8,973.9844 Q484.7531,973.6719 484.5813,973.5 Q484.2688,973.1719 483.7063,972.9766 Q483.1438,972.7813 482.5813,972.7813 Q481.8781,972.7813 481.2922,973.0625 Q480.7063,973.3438 480.2531,973.9688 Q479.8,974.5938 479.8,975.4531 L479.8,976.375 Q479.8,977.4063 480.6438,978.0938 Q481.4875,978.7813 482.9875,978.7813 Q483.8781,978.7813 484.5031,978.5781 Q484.8625,978.4688 485.2688,978.1094 Q485.5344,977.9063 485.675,977.8438 Q485.8156,977.7813 485.9875,977.7813 Q486.3156,977.7813 486.5578,978.0391 Q486.8,978.2969 486.8,978.6563 Q486.8,979 486.4563,979.4063 Q485.9563,980 485.1594,980.3281 Q484.1125,980.7813 482.8313,980.7813 Q481.3313,980.7813 480.1281,980.1875 Q479.1594,979.7188 478.4797,978.7031 Q477.8,977.6875 477.8,976.4844 L477.8,975.3906 Q477.8,974.1406 478.4016,973.0469 Q479.0031,971.9531 480.0578,971.3672 Q481.1125,970.7813 482.3,970.7813 Q483.0188,970.7813 483.6438,971.0313 Q484.2688,971.2813 484.8,971.7813 Z "/>
        <text fill="#000000" font-family="sans-serif" font-size="12" lengthAdjust="spacingAndGlyphs" textLength="90"
              x="498.2" y="980.1914">StringResponse
        </text>
        <line style="stroke: #A80036; stroke-width: 1.5;" x1="462.5" x2="596.5" y1="991.2813" y2="991.2813"/>
        <rect fill="none" height="6" style="stroke: #C82930; stroke-width: 1.0;" width="6" x="469.5" y="1000.6992"/>
        <text fill="#000000" font-family="sans-serif" font-size="11" lengthAdjust="spacingAndGlyphs" textLength="77"
              x="481.5" y="1006.7002">String response
        </text>
        <line style="stroke: #A80036; stroke-width: 1.5;" x1="462.5" x2="596.5" y1="1013.1172" y2="1013.1172"/>
        <ellipse cx="472.5" cy="1025.5352" fill="#84BE84" rx="3" ry="3" style="stroke: #038048; stroke-width: 1.0;"/>
        <text fill="#000000" font-family="sans-serif" font-size="11" lengthAdjust="spacingAndGlyphs" textLength="110"
              x="481.5" y="1028.5361">compareTo(Object): int
        </text><!--class ListResponse-->
        <rect fill="#FEFECE" filter="url(#f1to5a7z4xmpf4)" height="75.6719" id="ListResponse"
              style="stroke: #A80036; stroke-width: 1.5;" width="136" x="632.5" y="959.2813"/>
        <ellipse cx="659.2" cy="975.2813" fill="#ADD1B2" rx="11" ry="11" style="stroke: #A80036; stroke-width: 1.0;"/>
        <path d="M661.2,971.7813 Q661.4031,971.2813 661.6375,971.0313 Q661.8719,970.7813 662.1375,970.7813 Q662.6063,970.7813 662.9031,971.0625 Q663.2,971.3438 663.2,972 L663.2,973.5625 Q663.2,974.2188 662.9188,974.5 Q662.6375,974.7813 662.2,974.7813 Q661.8094,974.7813 661.5594,974.6094 Q661.3094,974.4375 661.2,973.9844 Q661.1531,973.6719 660.9813,973.5 Q660.6688,973.1719 660.1063,972.9766 Q659.5438,972.7813 658.9813,972.7813 Q658.2781,972.7813 657.6922,973.0625 Q657.1063,973.3438 656.6531,973.9688 Q656.2,974.5938 656.2,975.4531 L656.2,976.375 Q656.2,977.4063 657.0438,978.0938 Q657.8875,978.7813 659.3875,978.7813 Q660.2781,978.7813 660.9031,978.5781 Q661.2625,978.4688 661.6688,978.1094 Q661.9344,977.9063 662.075,977.8438 Q662.2156,977.7813 662.3875,977.7813 Q662.7156,977.7813 662.9578,978.0391 Q663.2,978.2969 663.2,978.6563 Q663.2,979 662.8563,979.4063 Q662.3563,980 661.5594,980.3281 Q660.5125,980.7813 659.2313,980.7813 Q657.7313,980.7813 656.5281,980.1875 Q655.5594,979.7188 654.8797,978.7031 Q654.2,977.6875 654.2,976.4844 L654.2,975.3906 Q654.2,974.1406 654.8016,973.0469 Q655.4031,971.9531 656.4578,971.3672 Q657.5125,970.7813 658.7,970.7813 Q659.4188,970.7813 660.0438,971.0313 Q660.6688,971.2813 661.2,971.7813 Z "/>
        <text fill="#000000" font-family="sans-serif" font-size="12" lengthAdjust="spacingAndGlyphs" textLength="78"
              x="675.8" y="980.1914">ListResponse
        </text>
        <line style="stroke: #A80036; stroke-width: 1.5;" x1="633.5" x2="767.5" y1="991.2813" y2="991.2813"/>
        <rect fill="none" height="6" style="stroke: #C82930; stroke-width: 1.0;" width="6" x="640.5" y="1000.6992"/>
        <text fill="#000000" font-family="sans-serif" font-size="11" lengthAdjust="spacingAndGlyphs" textLength="105"
              x="652.5" y="1006.7002">Vector&lt;int&gt; response
        </text>
        <line style="stroke: #A80036; stroke-width: 1.5;" x1="633.5" x2="767.5" y1="1013.1172" y2="1013.1172"/>
        <ellipse cx="643.5" cy="1025.5352" fill="#84BE84" rx="3" ry="3" style="stroke: #038048; stroke-width: 1.0;"/>
        <text fill="#000000" font-family="sans-serif" font-size="11" lengthAdjust="spacingAndGlyphs" textLength="110"
              x="652.5" y="1028.5361">compareTo(Object): int
        </text><!--class ExistingSurveyTest-->
        <rect fill="#FEFECE" filter="url(#f1to5a7z4xmpf4)" height="61.8359" id="ExistingSurveyTest"
              style="stroke: #A80036; stroke-width: 1.5;" width="167" x="178" y="673.2813"/>
        <ellipse cx="207.4" cy="689.2813" fill="#ADD1B2" rx="11" ry="11" style="stroke: #A80036; stroke-width: 1.0;"/>
        <path d="M209.4,685.7813 Q209.6031,685.2813 209.8375,685.0313 Q210.0719,684.7813 210.3375,684.7813 Q210.8063,684.7813 211.1031,685.0625 Q211.4,685.3438 211.4,686 L211.4,687.5625 Q211.4,688.2188 211.1188,688.5 Q210.8375,688.7813 210.4,688.7813 Q210.0094,688.7813 209.7594,688.6094 Q209.5094,688.4375 209.4,687.9844 Q209.3531,687.6719 209.1813,687.5 Q208.8688,687.1719 208.3063,686.9766 Q207.7438,686.7813 207.1813,686.7813 Q206.4781,686.7813 205.8922,687.0625 Q205.3063,687.3438 204.8531,687.9688 Q204.4,688.5938 204.4,689.4531 L204.4,690.375 Q204.4,691.4063 205.2438,692.0938 Q206.0875,692.7813 207.5875,692.7813 Q208.4781,692.7813 209.1031,692.5781 Q209.4625,692.4688 209.8688,692.1094 Q210.1344,691.9063 210.275,691.8438 Q210.4156,691.7813 210.5875,691.7813 Q210.9156,691.7813 211.1578,692.0391 Q211.4,692.2969 211.4,692.6563 Q211.4,693 211.0563,693.4063 Q210.5563,694 209.7594,694.3281 Q208.7125,694.7813 207.4313,694.7813 Q205.9313,694.7813 204.7281,694.1875 Q203.7594,693.7188 203.0797,692.7031 Q202.4,691.6875 202.4,690.4844 L202.4,689.3906 Q202.4,688.1406 203.0016,687.0469 Q203.6031,685.9531 204.6578,685.3672 Q205.7125,684.7813 206.9,684.7813 Q207.6188,684.7813 208.2438,685.0313 Q208.8688,685.2813 209.4,685.7813 Z "/>
        <text fill="#000000" font-family="sans-serif" font-size="12" lengthAdjust="spacingAndGlyphs" textLength="103"
              x="224.6" y="694.1914">ExistingSurveyTest
        </text>
        <line style="stroke: #A80036; stroke-width: 1.5;" x1="179" x2="344" y1="705.2813" y2="705.2813"/>
        <line style="stroke: #A80036; stroke-width: 1.5;" x1="179" x2="344" y1="713.2813" y2="713.2813"/>
        <ellipse cx="189" cy="725.6992" fill="#84BE84" rx="3" ry="3" style="stroke: #038048; stroke-width: 1.0;"/>
        <text fill="#000000" font-family="sans-serif" font-size="11" lengthAdjust="spacingAndGlyphs" textLength="141"
              x="198" y="728.7002">GetExisting(): Vector&lt;String&gt;
        </text><!--class StartMenu-->
        <rect fill="#FEFECE" filter="url(#f1to5a7z4xmpf4)" height="61.8359" id="StartMenu"
              style="stroke: #A80036; stroke-width: 1.5;" width="117" x="368" y="537.2813"/>
        <ellipse cx="396.5" cy="553.2813" fill="#ADD1B2" rx="11" ry="11" style="stroke: #A80036; stroke-width: 1.0;"/>
        <path d="M398.5,549.7813 Q398.7031,549.2813 398.9375,549.0313 Q399.1719,548.7813 399.4375,548.7813 Q399.9063,548.7813 400.2031,549.0625 Q400.5,549.3438 400.5,550 L400.5,551.5625 Q400.5,552.2188 400.2188,552.5 Q399.9375,552.7813 399.5,552.7813 Q399.1094,552.7813 398.8594,552.6094 Q398.6094,552.4375 398.5,551.9844 Q398.4531,551.6719 398.2813,551.5 Q397.9688,551.1719 397.4063,550.9766 Q396.8438,550.7813 396.2813,550.7813 Q395.5781,550.7813 394.9922,551.0625 Q394.4063,551.3438 393.9531,551.9688 Q393.5,552.5938 393.5,553.4531 L393.5,554.375 Q393.5,555.4063 394.3438,556.0938 Q395.1875,556.7813 396.6875,556.7813 Q397.5781,556.7813 398.2031,556.5781 Q398.5625,556.4688 398.9688,556.1094 Q399.2344,555.9063 399.375,555.8438 Q399.5156,555.7813 399.6875,555.7813 Q400.0156,555.7813 400.2578,556.0391 Q400.5,556.2969 400.5,556.6563 Q400.5,557 400.1563,557.4063 Q399.6563,558 398.8594,558.3281 Q397.8125,558.7813 396.5313,558.7813 Q395.0313,558.7813 393.8281,558.1875 Q392.8594,557.7188 392.1797,556.7031 Q391.5,555.6875 391.5,554.4844 L391.5,553.3906 Q391.5,552.1406 392.1016,551.0469 Q392.7031,549.9531 393.7578,549.3672 Q394.8125,548.7813 396,548.7813 Q396.7188,548.7813 397.3438,549.0313 Q397.9688,549.2813 398.5,549.7813 Z "/>
        <text fill="#000000" font-family="sans-serif" font-size="12" lengthAdjust="spacingAndGlyphs" textLength="55"
              x="413.5" y="558.1914">StartMenu
        </text>
        <line style="stroke: #A80036; stroke-width: 1.5;" x1="369" x2="484" y1="569.2813" y2="569.2813"/>
        <line style="stroke: #A80036; stroke-width: 1.5;" x1="369" x2="484" y1="577.2813" y2="577.2813"/>
        <ellipse cx="379" cy="589.6992" fill="#84BE84" rx="3" ry="3" style="stroke: #038048; stroke-width: 1.0;"/>
        <text fill="#000000" font-family="sans-serif" font-size="11" lengthAdjust="spacingAndGlyphs" textLength="91"
              x="388" y="592.7002">executeChoice(int)
        </text><!--class DeleteSurveyTestMenu-->
        <rect fill="#FEFECE" filter="url(#f1to5a7z4xmpf4)" height="48" id="DeleteSurveyTestMenu"
              style="stroke: #A80036; stroke-width: 1.5;" width="158" x="520.5" y="544.2813"/>
        <ellipse cx="535.5" cy="560.2813" fill="#ADD1B2" rx="11" ry="11" style="stroke: #A80036; stroke-width: 1.0;"/>
        <path d="M537.5,556.7813 Q537.7031,556.2813 537.9375,556.0313 Q538.1719,555.7813 538.4375,555.7813 Q538.9063,555.7813 539.2031,556.0625 Q539.5,556.3438 539.5,557 L539.5,558.5625 Q539.5,559.2188 539.2188,559.5 Q538.9375,559.7813 538.5,559.7813 Q538.1094,559.7813 537.8594,559.6094 Q537.6094,559.4375 537.5,558.9844 Q537.4531,558.6719 537.2813,558.5 Q536.9688,558.1719 536.4063,557.9766 Q535.8438,557.7813 535.2813,557.7813 Q534.5781,557.7813 533.9922,558.0625 Q533.4063,558.3438 532.9531,558.9688 Q532.5,559.5938 532.5,560.4531 L532.5,561.375 Q532.5,562.4063 533.3438,563.0938 Q534.1875,563.7813 535.6875,563.7813 Q536.5781,563.7813 537.2031,563.5781 Q537.5625,563.4688 537.9688,563.1094 Q538.2344,562.9063 538.375,562.8438 Q538.5156,562.7813 538.6875,562.7813 Q539.0156,562.7813 539.2578,563.0391 Q539.5,563.2969 539.5,563.6563 Q539.5,564 539.1563,564.4063 Q538.6563,565 537.8594,565.3281 Q536.8125,565.7813 535.5313,565.7813 Q534.0313,565.7813 532.8281,565.1875 Q531.8594,564.7188 531.1797,563.7031 Q530.5,562.6875 530.5,561.4844 L530.5,560.3906 Q530.5,559.1406 531.1016,558.0469 Q531.7031,556.9531 532.7578,556.3672 Q533.8125,555.7813 535,555.7813 Q535.7188,555.7813 536.3438,556.0313 Q536.9688,556.2813 537.5,556.7813 Z "/>
        <text fill="#000000" font-family="sans-serif" font-size="12" lengthAdjust="spacingAndGlyphs" textLength="126"
              x="549.5" y="565.1914">DeleteSurveyTestMenu
        </text>
        <line style="stroke: #A80036; stroke-width: 1.5;" x1="521.5" x2="677.5" y1="576.2813" y2="576.2813"/>
        <line style="stroke: #A80036; stroke-width: 1.5;" x1="521.5" x2="677.5" y1="584.2813"
              y2="584.2813"/><!--class TakeSurveyTestMenu-->
        <rect fill="#FEFECE" filter="url(#f1to5a7z4xmpf4)" height="48" id="TakeSurveyTestMenu"
              style="stroke: #A80036; stroke-width: 1.5;" width="149" x="6" y="544.2813"/>
        <ellipse cx="21" cy="560.2813" fill="#ADD1B2" rx="11" ry="11" style="stroke: #A80036; stroke-width: 1.0;"/>
        <path d="M23,556.7813 Q23.2031,556.2813 23.4375,556.0313 Q23.6719,555.7813 23.9375,555.7813 Q24.4063,555.7813 24.7031,556.0625 Q25,556.3438 25,557 L25,558.5625 Q25,559.2188 24.7188,559.5 Q24.4375,559.7813 24,559.7813 Q23.6094,559.7813 23.3594,559.6094 Q23.1094,559.4375 23,558.9844 Q22.9531,558.6719 22.7813,558.5 Q22.4688,558.1719 21.9063,557.9766 Q21.3438,557.7813 20.7813,557.7813 Q20.0781,557.7813 19.4922,558.0625 Q18.9063,558.3438 18.4531,558.9688 Q18,559.5938 18,560.4531 L18,561.375 Q18,562.4063 18.8438,563.0938 Q19.6875,563.7813 21.1875,563.7813 Q22.0781,563.7813 22.7031,563.5781 Q23.0625,563.4688 23.4688,563.1094 Q23.7344,562.9063 23.875,562.8438 Q24.0156,562.7813 24.1875,562.7813 Q24.5156,562.7813 24.7578,563.0391 Q25,563.2969 25,563.6563 Q25,564 24.6563,564.4063 Q24.1563,565 23.3594,565.3281 Q22.3125,565.7813 21.0313,565.7813 Q19.5313,565.7813 18.3281,565.1875 Q17.3594,564.7188 16.6797,563.7031 Q16,562.6875 16,561.4844 L16,560.3906 Q16,559.1406 16.6016,558.0469 Q17.2031,556.9531 18.2578,556.3672 Q19.3125,555.7813 20.5,555.7813 Q21.2188,555.7813 21.8438,556.0313 Q22.4688,556.2813 23,556.7813 Z "/>
        <text fill="#000000" font-family="sans-serif" font-size="12" lengthAdjust="spacingAndGlyphs" textLength="117"
              x="35" y="565.1914">TakeSurveyTestMenu
        </text>
        <line style="stroke: #A80036; stroke-width: 1.5;" x1="7" x2="154" y1="576.2813" y2="576.2813"/>
        <line style="stroke: #A80036; stroke-width: 1.5;" x1="7" x2="154" y1="584.2813"
              y2="584.2813"/><!--class EditSurveyTestMenu-->
        <rect fill="#FEFECE" filter="url(#f1to5a7z4xmpf4)" height="48" id="EditSurveyTestMenu"
              style="stroke: #A80036; stroke-width: 1.5;" width="143" x="190" y="544.2813"/>
        <ellipse cx="205" cy="560.2813" fill="#ADD1B2" rx="11" ry="11" style="stroke: #A80036; stroke-width: 1.0;"/>
        <path d="M207,556.7813 Q207.2031,556.2813 207.4375,556.0313 Q207.6719,555.7813 207.9375,555.7813 Q208.4063,555.7813 208.7031,556.0625 Q209,556.3438 209,557 L209,558.5625 Q209,559.2188 208.7188,559.5 Q208.4375,559.7813 208,559.7813 Q207.6094,559.7813 207.3594,559.6094 Q207.1094,559.4375 207,558.9844 Q206.9531,558.6719 206.7813,558.5 Q206.4688,558.1719 205.9063,557.9766 Q205.3438,557.7813 204.7813,557.7813 Q204.0781,557.7813 203.4922,558.0625 Q202.9063,558.3438 202.4531,558.9688 Q202,559.5938 202,560.4531 L202,561.375 Q202,562.4063 202.8438,563.0938 Q203.6875,563.7813 205.1875,563.7813 Q206.0781,563.7813 206.7031,563.5781 Q207.0625,563.4688 207.4688,563.1094 Q207.7344,562.9063 207.875,562.8438 Q208.0156,562.7813 208.1875,562.7813 Q208.5156,562.7813 208.7578,563.0391 Q209,563.2969 209,563.6563 Q209,564 208.6563,564.4063 Q208.1563,565 207.3594,565.3281 Q206.3125,565.7813 205.0313,565.7813 Q203.5313,565.7813 202.3281,565.1875 Q201.3594,564.7188 200.6797,563.7031 Q200,562.6875 200,561.4844 L200,560.3906 Q200,559.1406 200.6016,558.0469 Q201.2031,556.9531 202.2578,556.3672 Q203.3125,555.7813 204.5,555.7813 Q205.2188,555.7813 205.8438,556.0313 Q206.4688,556.2813 207,556.7813 Z "/>
        <text fill="#000000" font-family="sans-serif" font-size="12" lengthAdjust="spacingAndGlyphs" textLength="111"
              x="219" y="565.1914">EditSurveyTestMenu
        </text>
        <line style="stroke: #A80036; stroke-width: 1.5;" x1="191" x2="332" y1="576.2813" y2="576.2813"/>
        <line style="stroke: #A80036; stroke-width: 1.5;" x1="191" x2="332" y1="584.2813"
              y2="584.2813"/><!--class Input-->
        <rect fill="#FEFECE" filter="url(#f1to5a7z4xmpf4)" height="75.6719" id="Input"
              style="stroke: #A80036; stroke-width: 1.5;" width="125" x="658" y="60.2813"/>
        <ellipse cx="702.75" cy="76.2813" fill="#ADD1B2" rx="11" ry="11" style="stroke: #A80036; stroke-width: 1.0;"/>
        <path d="M704.75,72.7813 Q704.9531,72.2813 705.1875,72.0313 Q705.4219,71.7813 705.6875,71.7813 Q706.1563,71.7813 706.4531,72.0625 Q706.75,72.3438 706.75,73 L706.75,74.5625 Q706.75,75.2188 706.4688,75.5 Q706.1875,75.7813 705.75,75.7813 Q705.3594,75.7813 705.1094,75.6094 Q704.8594,75.4375 704.75,74.9844 Q704.7031,74.6719 704.5313,74.5 Q704.2188,74.1719 703.6563,73.9766 Q703.0938,73.7813 702.5313,73.7813 Q701.8281,73.7813 701.2422,74.0625 Q700.6563,74.3438 700.2031,74.9688 Q699.75,75.5938 699.75,76.4531 L699.75,77.375 Q699.75,78.4063 700.5938,79.0938 Q701.4375,79.7813 702.9375,79.7813 Q703.8281,79.7813 704.4531,79.5781 Q704.8125,79.4688 705.2188,79.1094 Q705.4844,78.9063 705.625,78.8438 Q705.7656,78.7813 705.9375,78.7813 Q706.2656,78.7813 706.5078,79.0391 Q706.75,79.2969 706.75,79.6563 Q706.75,80 706.4063,80.4063 Q705.9063,81 705.1094,81.3281 Q704.0625,81.7813 702.7813,81.7813 Q701.2813,81.7813 700.0781,81.1875 Q699.1094,80.7188 698.4297,79.7031 Q697.75,78.6875 697.75,77.4844 L697.75,76.3906 Q697.75,75.1406 698.3516,74.0469 Q698.9531,72.9531 700.0078,72.3672 Q701.0625,71.7813 702.25,71.7813 Q702.9688,71.7813 703.5938,72.0313 Q704.2188,72.2813 704.75,72.7813 Z "/>
        <text fill="#000000" font-family="sans-serif" font-size="12" lengthAdjust="spacingAndGlyphs" textLength="27"
              x="723.25" y="81.1914">Input
        </text>
        <line style="stroke: #A80036; stroke-width: 1.5;" x1="659" x2="782" y1="92.2813" y2="92.2813"/>
        <line style="stroke: #A80036; stroke-width: 1.5;" x1="659" x2="782" y1="100.2813" y2="100.2813"/>
        <ellipse cx="669" cy="112.6992" fill="#84BE84" rx="3" ry="3" style="stroke: #038048; stroke-width: 1.0;"/>
        <text fill="#000000" font-family="sans-serif" font-size="11" font-style="italic" lengthAdjust="spacingAndGlyphs"
              textLength="96" x="678" y="115.7002">getStringInput(): Str
        </text>
        <ellipse cx="669" cy="126.5352" fill="#84BE84" rx="3" ry="3" style="stroke: #038048; stroke-width: 1.0;"/>
        <text fill="#000000" font-family="sans-serif" font-size="11" font-style="italic" lengthAdjust="spacingAndGlyphs"
              textLength="99" x="678" y="129.5361">getIntegerInput(): Int
        </text><!--class ConsoleInput-->
        <rect fill="#FEFECE" filter="url(#f1to5a7z4xmpf4)" height="75.6719" id="ConsoleInput"
              style="stroke: #A80036; stroke-width: 1.5;" width="125" x="687" y="210.2813"/>
        <ellipse cx="710.55" cy="226.2813" fill="#ADD1B2" rx="11" ry="11" style="stroke: #A80036; stroke-width: 1.0;"/>
        <path d="M712.55,222.7813 Q712.7531,222.2813 712.9875,222.0313 Q713.2219,221.7813 713.4875,221.7813 Q713.9563,221.7813 714.2531,222.0625 Q714.55,222.3438 714.55,223 L714.55,224.5625 Q714.55,225.2188 714.2688,225.5 Q713.9875,225.7813 713.55,225.7813 Q713.1594,225.7813 712.9094,225.6094 Q712.6594,225.4375 712.55,224.9844 Q712.5031,224.6719 712.3313,224.5 Q712.0188,224.1719 711.4563,223.9766 Q710.8938,223.7813 710.3313,223.7813 Q709.6281,223.7813 709.0422,224.0625 Q708.4563,224.3438 708.0031,224.9688 Q707.55,225.5938 707.55,226.4531 L707.55,227.375 Q707.55,228.4063 708.3938,229.0938 Q709.2375,229.7813 710.7375,229.7813 Q711.6281,229.7813 712.2531,229.5781 Q712.6125,229.4688 713.0188,229.1094 Q713.2844,228.9063 713.425,228.8438 Q713.5656,228.7813 713.7375,228.7813 Q714.0656,228.7813 714.3078,229.0391 Q714.55,229.2969 714.55,229.6563 Q714.55,230 714.2063,230.4063 Q713.7063,231 712.9094,231.3281 Q711.8625,231.7813 710.5813,231.7813 Q709.0813,231.7813 707.8781,231.1875 Q706.9094,230.7188 706.2297,229.7031 Q705.55,228.6875 705.55,227.4844 L705.55,226.3906 Q705.55,225.1406 706.1516,224.0469 Q706.7531,222.9531 707.8078,222.3672 Q708.8625,221.7813 710.05,221.7813 Q710.7688,221.7813 711.3938,222.0313 Q712.0188,222.2813 712.55,222.7813 Z "/>
        <text fill="#000000" font-family="sans-serif" font-size="12" lengthAdjust="spacingAndGlyphs" textLength="74"
              x="726.45" y="231.1914">ConsoleInput
        </text>
        <line style="stroke: #A80036; stroke-width: 1.5;" x1="688" x2="811" y1="242.2813" y2="242.2813"/>
        <line style="stroke: #A80036; stroke-width: 1.5;" x1="688" x2="811" y1="250.2813" y2="250.2813"/>
        <ellipse cx="698" cy="262.6992" fill="#84BE84" rx="3" ry="3" style="stroke: #038048; stroke-width: 1.0;"/>
        <text fill="#000000" font-family="sans-serif" font-size="11" lengthAdjust="spacingAndGlyphs" textLength="94"
              x="707" y="265.7002">getStringInput(): Str
        </text>
        <ellipse cx="698" cy="276.5352" fill="#84BE84" rx="3" ry="3" style="stroke: #038048; stroke-width: 1.0;"/>
        <text fill="#000000" font-family="sans-serif" font-size="11" lengthAdjust="spacingAndGlyphs" textLength="99"
              x="707" y="279.5361">getIntegerInput(): Str
        </text><!--class Output-->
        <rect fill="#FEFECE" filter="url(#f1to5a7z4xmpf4)" height="89.5078" id="Output"
              style="stroke: #A80036; stroke-width: 1.5;" width="149" x="417" y="53.2813"/>
        <ellipse cx="469.25" cy="69.2813" fill="#ADD1B2" rx="11" ry="11" style="stroke: #A80036; stroke-width: 1.0;"/>
        <path d="M471.25,65.7813 Q471.4531,65.2813 471.6875,65.0313 Q471.9219,64.7813 472.1875,64.7813 Q472.6563,64.7813 472.9531,65.0625 Q473.25,65.3438 473.25,66 L473.25,67.5625 Q473.25,68.2188 472.9688,68.5 Q472.6875,68.7813 472.25,68.7813 Q471.8594,68.7813 471.6094,68.6094 Q471.3594,68.4375 471.25,67.9844 Q471.2031,67.6719 471.0313,67.5 Q470.7188,67.1719 470.1563,66.9766 Q469.5938,66.7813 469.0313,66.7813 Q468.3281,66.7813 467.7422,67.0625 Q467.1563,67.3438 466.7031,67.9688 Q466.25,68.5938 466.25,69.4531 L466.25,70.375 Q466.25,71.4063 467.0938,72.0938 Q467.9375,72.7813 469.4375,72.7813 Q470.3281,72.7813 470.9531,72.5781 Q471.3125,72.4688 471.7188,72.1094 Q471.9844,71.9063 472.125,71.8438 Q472.2656,71.7813 472.4375,71.7813 Q472.7656,71.7813 473.0078,72.0391 Q473.25,72.2969 473.25,72.6563 Q473.25,73 472.9063,73.4063 Q472.4063,74 471.6094,74.3281 Q470.5625,74.7813 469.2813,74.7813 Q467.7813,74.7813 466.5781,74.1875 Q465.6094,73.7188 464.9297,72.7031 Q464.25,71.6875 464.25,70.4844 L464.25,69.3906 Q464.25,68.1406 464.8516,67.0469 Q465.4531,65.9531 466.5078,65.3672 Q467.5625,64.7813 468.75,64.7813 Q469.4688,64.7813 470.0938,65.0313 Q470.7188,65.2813 471.25,65.7813 Z "/>
        <text fill="#000000" font-family="sans-serif" font-size="12" lengthAdjust="spacingAndGlyphs" textLength="36"
              x="489.75" y="74.1914">Output
        </text>
        <line style="stroke: #A80036; stroke-width: 1.5;" x1="418" x2="565" y1="85.2813" y2="85.2813"/>
        <line style="stroke: #A80036; stroke-width: 1.5;" x1="418" x2="565" y1="93.2813" y2="93.2813"/>
        <ellipse cx="428" cy="105.6992" fill="#84BE84" rx="3" ry="3" style="stroke: #038048; stroke-width: 1.0;"/>
        <text fill="#000000" font-family="sans-serif" font-size="11" font-style="italic" lengthAdjust="spacingAndGlyphs"
              textLength="88" x="437" y="108.7002">displayQuestion()
        </text>
        <ellipse cx="428" cy="119.5352" fill="#84BE84" rx="3" ry="3" style="stroke: #038048; stroke-width: 1.0;"/>
        <text fill="#000000" font-family="sans-serif" font-size="11" font-style="italic" lengthAdjust="spacingAndGlyphs"
              textLength="123" x="437" y="122.5361">displayQuestionPrompt()
        </text>
        <ellipse cx="428" cy="133.3711" fill="#84BE84" rx="3" ry="3" style="stroke: #038048; stroke-width: 1.0;"/>
        <text fill="#000000" font-family="sans-serif" font-size="11" font-style="italic" lengthAdjust="spacingAndGlyphs"
              textLength="84" x="437" y="136.3721">displayChoices()
        </text><!--class ConsoleOutput-->
        <rect fill="#FEFECE" filter="url(#f1to5a7z4xmpf4)" height="75.6719" id="ConsoleOutput"
              style="stroke: #A80036; stroke-width: 1.5;" width="144" x="390.5" y="210.2813"/>
        <ellipse cx="418.55" cy="226.2813" fill="#ADD1B2" rx="11" ry="11" style="stroke: #A80036; stroke-width: 1.0;"/>
        <path d="M420.55,222.7813 Q420.7531,222.2813 420.9875,222.0313 Q421.2219,221.7813 421.4875,221.7813 Q421.9563,221.7813 422.2531,222.0625 Q422.55,222.3438 422.55,223 L422.55,224.5625 Q422.55,225.2188 422.2688,225.5 Q421.9875,225.7813 421.55,225.7813 Q421.1594,225.7813 420.9094,225.6094 Q420.6594,225.4375 420.55,224.9844 Q420.5031,224.6719 420.3313,224.5 Q420.0188,224.1719 419.4563,223.9766 Q418.8938,223.7813 418.3313,223.7813 Q417.6281,223.7813 417.0422,224.0625 Q416.4563,224.3438 416.0031,224.9688 Q415.55,225.5938 415.55,226.4531 L415.55,227.375 Q415.55,228.4063 416.3938,229.0938 Q417.2375,229.7813 418.7375,229.7813 Q419.6281,229.7813 420.2531,229.5781 Q420.6125,229.4688 421.0188,229.1094 Q421.2844,228.9063 421.425,228.8438 Q421.5656,228.7813 421.7375,228.7813 Q422.0656,228.7813 422.3078,229.0391 Q422.55,229.2969 422.55,229.6563 Q422.55,230 422.2063,230.4063 Q421.7063,231 420.9094,231.3281 Q419.8625,231.7813 418.5813,231.7813 Q417.0813,231.7813 415.8781,231.1875 Q414.9094,230.7188 414.2297,229.7031 Q413.55,228.6875 413.55,227.4844 L413.55,226.3906 Q413.55,225.1406 414.1516,224.0469 Q414.7531,222.9531 415.8078,222.3672 Q416.8625,221.7813 418.05,221.7813 Q418.7688,221.7813 419.3938,222.0313 Q420.0188,222.2813 420.55,222.7813 Z "/>
        <text fill="#000000" font-family="sans-serif" font-size="12" lengthAdjust="spacingAndGlyphs" textLength="83"
              x="435.45" y="231.1914">ConsoleOutput
        </text>
        <line style="stroke: #A80036; stroke-width: 1.5;" x1="391.5" x2="533.5" y1="242.2813" y2="242.2813"/>
        <line style="stroke: #A80036; stroke-width: 1.5;" x1="391.5" x2="533.5" y1="250.2813" y2="250.2813"/>
        <ellipse cx="401.5" cy="262.6992" fill="#84BE84" rx="3" ry="3" style="stroke: #038048; stroke-width: 1.0;"/>
        <text fill="#000000" font-family="sans-serif" font-size="11" lengthAdjust="spacingAndGlyphs" textLength="85"
              x="410.5" y="265.7002">displayQuestion()
        </text>
        <ellipse cx="401.5" cy="276.5352" fill="#84BE84" rx="3" ry="3" style="stroke: #038048; stroke-width: 1.0;"/>
        <text fill="#000000" font-family="sans-serif" font-size="11" lengthAdjust="spacingAndGlyphs" textLength="118"
              x="410.5" y="279.5361">displayQuestionPrompt()
        </text><!--link main to SurveyManager-->
        <path d="M661.661,293.9433 C685.14,314.4403 713.093,338.8423 737.365,360.0313 " fill="none"
              id="main-SurveyManager" style="stroke: #A80036; stroke-width: 1.0;"/>
        <polygon fill="#FFFFFF"
                 points="651.557,285.1233,653.4466,292.0824,660.5971,293.0147,658.7076,286.0556,651.557,285.1233"
                 style="stroke: #A80036; stroke-width: 1.0;"/><!--link main to Menu-->
        <path d="M559.264,294.2523 C533.524,316.8443 502.447,344.1213 476.834,366.6023 " fill="none" id="main-Menu"
              style="stroke: #A80036; stroke-width: 1.0;"/>
        <polygon fill="#FFFFFF"
                 points="569.207,285.5253,562.059,286.4771,560.1884,293.4414,567.3364,292.4895,569.207,285.5253"
                 style="stroke: #A80036; stroke-width: 1.0;"/><!--link SurveyManager to Survey-->
        <path d="M795.5,483.5812 C795.5,499.5553 795.5,515.8993 795.5,529.8563 " fill="none" id="SurveyManager-Survey"
              style="stroke: #A80036; stroke-width: 1.0;"/>
        <polygon fill="#FFFFFF" points="795.5,470.3113,791.5,476.3113,795.5,482.3113,799.5,476.3113,795.5,470.3113"
                 style="stroke: #A80036; stroke-width: 1.0;"/><!--link SurveyManager to TestManager-->
        <path d="M868.583,479.5943 C890.487,499.6183 913.433,520.5953 931.388,537.0103 " fill="none"
              id="SurveyManager-TestManager" style="stroke: #A80036; stroke-width: 1.0;"/>
        <polygon fill="none" points="863.698,484.6123,853.66,465.9512,873.145,474.2793,863.698,484.6123"
                 style="stroke: #A80036; stroke-width: 1.0;"/><!--link Survey to Test-->
        <path d="M770.887,611.0303 C760.487,628.6703 748.474,649.0463 738.388,666.1553 " fill="none" id="Survey-Test"
              style="stroke: #A80036; stroke-width: 1.0;"/>
        <polygon fill="#A80036"
                 points="773.494,606.6073,765.4782,612.3297,770.9552,610.9148,772.3702,616.3918,773.494,606.6073"
                 style="stroke: #A80036; stroke-width: 1.0;"/><!--link Test to Response-->
        <path d="M710.814,755.3863 C708.81,773.0473 706.594,792.5773 704.731,808.9933 " fill="none" id="Test-Response"
              style="stroke: #A80036; stroke-width: 1.0;"/>
        <polygon fill="#FFFFFF"
                 points="712.296,742.3273,707.645,747.838,710.943,754.2507,715.594,748.74,712.296,742.3273"
                 style="stroke: #A80036; stroke-width: 1.0;"/><!--link Question to Survey-->
        <path d="M874.513,802.1173 C857.564,752.1723 830.032,671.0393 812.35,618.9363 " fill="none" id="Question-Survey"
              style="stroke: #A80036; stroke-width: 1.0;"/>
        <polygon fill="#FFFFFF"
                 points="808.08,606.3513,806.2209,613.3186,811.9372,617.7144,813.7963,610.7471,808.08,606.3513"
                 style="stroke: #A80036; stroke-width: 1.0;"/><!--link Question to MCQuestion-->
        <path d="M984.034,867.5843 C1073.84,886.6253 1212.33,917.8153 1330.5,952.2813 C1353.63,959.0283 1378.77,967.5553 1400.46,975.3023 "
              fill="none" id="Question-MCQuestion" style="stroke: #A80036; stroke-width: 1.0;"/>
        <polygon fill="none" points="982.374,874.3883,964.245,863.4183,985.258,860.6882,982.374,874.3883"
                 style="stroke: #A80036; stroke-width: 1.0;"/><!--link MCQuestion to TFQuestion-->
        <path d="M1478.26,1061.7173 C1482.89,1075.2173 1487.72,1089.3003 1492.16,1102.2413 " fill="none"
              id="MCQuestion-TFQuestion" style="stroke: #A80036; stroke-width: 1.0;"/>
        <polygon fill="none" points="1471.56,1063.7443,1471.69,1042.5543,1484.8,1059.2013,1471.56,1063.7443"
                 style="stroke: #A80036; stroke-width: 1.0;"/><!--link Question to RankingQuestion-->
        <path d="M981.991,898.6073 C1013.89,915.9672 1049.37,935.2693 1080.3,952.1003 " fill="none"
              id="Question-RankingQuestion" style="stroke: #A80036; stroke-width: 1.0;"/>
        <polygon fill="none" points="978.407,904.6263,964.185,888.9183,985.098,892.3293,978.407,904.6263"
                 style="stroke: #A80036; stroke-width: 1.0;"/><!--link RankingQuestion to MatchingQuestion-->
        <path d="M1161.5,1062.6773 C1161.5,1078.1963 1161.5,1094.4263 1161.5,1108.7686 " fill="none"
              id="RankingQuestion-MatchingQuestion" style="stroke: #A80036; stroke-width: 1.0;"/>
        <polygon fill="none" points="1154.5,1062.5553,1161.5,1042.5543,1168.5,1062.5543,1154.5,1062.5553"
                 style="stroke: #A80036; stroke-width: 1.0;"/><!--link Question to EssayQuestion-->
        <path d="M889.5,912.6533 C889.5,925.9993 889.5,939.7713 889.5,952.1913 " fill="none" id="Question-EssayQuestion"
              style="stroke: #A80036; stroke-width: 1.0;"/>
        <polygon fill="none" points="882.5,912.2853,889.5,892.2853,896.5,912.2853,882.5,912.2853"
                 style="stroke: #A80036; stroke-width: 1.0;"/><!--link EssayQuestion to ShortAnswerQuestion-->
        <path d="M848.841,1059.2703 C837.82,1075.8013 826.105,1093.3733 815.842,1108.7686 " fill="none"
              id="EssayQuestion-ShortAnswerQuestion" style="stroke: #A80036; stroke-width: 1.0;"/>
        <polygon fill="none" points="843.066,1055.3133,859.984,1042.5543,854.715,1063.0783,843.066,1055.3133"
                 style="stroke: #A80036; stroke-width: 1.0;"/><!--link Response to Question-->
        <path d="M761.039,847.2813 C774.665,847.2813 788.292,847.2813 801.918,847.2813 " fill="none"
              id="Response-Question" style="stroke: #A80036; stroke-width: 1.0;"/>
        <polygon fill="#FFFFFF"
                 points="814.983,847.2813,808.983,843.2813,802.983,847.2813,808.983,851.2813,814.983,847.2813"
                 style="stroke: #A80036; stroke-width: 1.0;"/><!--link Response to IntResponse-->
        <path d="M621.086,878.2133 C569.882,898.0513 502.148,925.3063 443.5,952.2813 C438.065,954.7813 432.478,957.4472 426.889,960.1853 "
              fill="none" id="Response-IntResponse" style="stroke: #A80036; stroke-width: 1.0;"/>
        <polygon fill="none" points="618.668,871.6433,639.847,870.9893,623.698,884.7083,618.668,871.6433"
                 style="stroke: #A80036; stroke-width: 1.0;"/><!--link Response to StringResponse-->
        <path d="M642.067,898.8553 C619.193,918.6523 593.437,940.9443 572.34,959.2033 " fill="none"
              id="Response-StringResponse" style="stroke: #A80036; stroke-width: 1.0;"/>
        <polygon fill="none" points="637.646,893.4233,657.349,885.6283,646.808,904.0093,637.646,893.4233"
                 style="stroke: #A80036; stroke-width: 1.0;"/><!--link Response to ListResponse-->
        <path d="M700.5,905.7973 C700.5,923.7433 700.5,943.0513 700.5,959.2033 " fill="none" id="Response-ListResponse"
              style="stroke: #A80036; stroke-width: 1.0;"/>
        <polygon fill="none" points="693.5,905.6283,700.5,885.6283,707.5,905.6283,693.5,905.6283"
                 style="stroke: #A80036; stroke-width: 1.0;"/><!--link Menu to StartMenu-->
        <path d="M426.5,477.2053 C426.5,498.0142 426.5,520.1003 426.5,537.1943 " fill="none" id="Menu-StartMenu"
              style="stroke: #A80036; stroke-width: 1.0;"/>
        <polygon fill="none" points="419.5,477.0553,426.5,457.0543,433.5,477.0543,419.5,477.0553"
                 style="stroke: #A80036; stroke-width: 1.0;"/><!--link Menu to DeleteSurveyTestMenu-->
        <path d="M491.076,470.4512 C519.66,495.9783 551.663,524.5593 573.444,544.0113 " fill="none"
              id="Menu-DeleteSurveyTestMenu" style="stroke: #A80036; stroke-width: 1.0;"/>
        <polygon fill="none" points="486.329,475.5983,476.075,457.0543,495.655,465.1563,486.329,475.5983"
                 style="stroke: #A80036; stroke-width: 1.0;"/><!--link DeleteSurveyTestMenu to ExistingSurveyTest-->
        <path d="M529.072,597.2023 C472.989,619.4363 394.641,650.4973 337.217,673.2633 " fill="none"
              id="DeleteSurveyTestMenu-ExistingSurveyTest" style="stroke: #A80036; stroke-width: 1.0;"/>
        <polygon fill="#FFFFFF"
                 points="541.396,592.3163,534.3441,590.8094,530.2409,596.7393,537.2928,598.2461,541.396,592.3163"
                 style="stroke: #A80036; stroke-width: 1.0;"/><!--link Menu to TakeSurveyTestMenu-->
        <path d="M337.852,452.3652 C272.681,481.4662 186.366,520.0093 132.127,544.2283 " fill="none"
              id="Menu-TakeSurveyTestMenu" style="stroke: #A80036; stroke-width: 1.0;"/>
        <polygon fill="none" points="335.366,445.8093,356.482,444.0463,341.074,458.5933,335.366,445.8093"
                 style="stroke: #A80036; stroke-width: 1.0;"/><!--link TakeSurveyTestMenu to ExistingSurveyTest-->
        <path d="M122.453,600.3403 C152.101,622.2903 191.624,651.5493 220.953,673.2633 " fill="none"
              id="TakeSurveyTestMenu-ExistingSurveyTest" style="stroke: #A80036; stroke-width: 1.0;"/>
        <polygon fill="#FFFFFF"
                 points="111.615,592.3163,114.0571,599.1012,121.2594,599.4566,118.8173,592.6716,111.615,592.3163"
                 style="stroke: #A80036; stroke-width: 1.0;"/><!--link Menu to EditSurveyTestMenu-->
        <path d="M364.533,470.8043 C337.367,496.2423 307.029,524.6493 286.351,544.0113 " fill="none"
              id="Menu-EditSurveyTestMenu" style="stroke: #A80036; stroke-width: 1.0;"/>
        <polygon fill="none" points="359.834,465.6152,379.218,457.0543,369.403,475.8343,359.834,465.6152"
                 style="stroke: #A80036; stroke-width: 1.0;"/><!--link EditSurveyTestMenu to ExistingSurveyTest-->
        <path d="M261.5,605.3413 C261.5,626.5043 261.5,652.9443 261.5,673.0173 " fill="none"
              id="EditSurveyTestMenu-ExistingSurveyTest" style="stroke: #A80036; stroke-width: 1.0;"/>
        <polygon fill="#FFFFFF" points="261.5,592.3163,257.5,598.3163,261.5,604.3163,265.5,598.3163,261.5,592.3163"
                 style="stroke: #A80036; stroke-width: 1.0;"/><!--link Input to main-->
        <path d="M684.898,147.1813 C671.54,165.1512 656.431,185.4813 643.336,203.1013 " fill="none" id="Input-main"
              style="stroke: #A80036; stroke-width: 1.0;"/>
        <polygon fill="#FFFFFF"
                 points="692.742,136.6312,685.9542,139.0655,685.5904,146.2674,692.3783,143.8332,692.742,136.6312"
                 style="stroke: #A80036; stroke-width: 1.0;"/><!--link Input to ConsoleInput-->
        <path d="M731.713,156.5013 C735.245,174.5313 739.053,193.9612 742.235,210.2033 " fill="none"
              id="Input-ConsoleInput" style="stroke: #A80036; stroke-width: 1.0;"/>
        <polygon fill="none" points="724.794,157.6012,727.818,136.6312,738.533,154.9113,724.794,157.6012"
                 style="stroke: #A80036; stroke-width: 1.0;"/><!--link Output to main-->
        <path d="M535.296,153.7513 C548.385,170.0313 562.566,187.6613 575.049,203.1912 " fill="none" id="Output-main"
              style="stroke: #A80036; stroke-width: 1.0;"/>
        <polygon fill="#FFFFFF"
                 points="526.882,143.2813,527.5291,150.4633,534.4076,152.6282,533.7604,145.4462,526.882,143.2813"
                 style="stroke: #A80036; stroke-width: 1.0;"/><!--link Output to ConsoleOutput-->
        <path d="M478.999,163.0812 C475.847,179.1613 472.566,195.9113 469.768,210.1893 " fill="none"
              id="Output-ConsoleOutput" style="stroke: #A80036; stroke-width: 1.0;"/>
        <polygon fill="none" points="472.162,161.5612,482.878,143.2813,485.901,164.2613,472.162,161.5612"
                 style="stroke: #A80036; stroke-width: 1.0;"/><!--
@startuml
  title __SURVEYTEST's Class Diagram__\n

  class main {
    +Manager
    +MainMenu
    +main(): void
  }
  main o- - SurveyManager
  main o- - Menu

  class SurveyManager {
    +take()
    +edit()
    +delete()
    +tabulate()
    +showAnswers()
  }
  SurveyManager o- - Survey

  class TestManager {
    +grade()
  }
  TestManager - -up|> SurveyManager

  class Survey {
    -String name
    -Vector<Question> questions
  }

  class Test {
    -Vector<Response> RCA
    +grade()
  }
  Test - -up> Survey
  Test o- - Response

  abstract class Question {
    #String prompt
    #{abstract}displayQuestion(): String
    #{abstract}answerQuestion(String?)
  }
  Question - -lefto Survey

  class MCQuestion {
    +displayPrompt()
    +displayQuestion()
    +getUserAnswer()
  }
  MCQuestion - -up|> Question

  class TFQuestion {
    -int maxChoices = 2
    +TFQuestion(Prompt:String)
    +displayQuestion(): String
    +getUserAnswer()
  }
  TFQuestion - -up|> MCQuestion

  class RankingQuestion {
    +RankingQuestion(Prompt:String, Choices: Vector<String>)
    +displayQuestion(): String
    +getUserAnswer()
  }
  RankingQuestion - -up|> Question

  class MatchingQuestion {
    +MatchingQuestion(Prompt:String, Choices: Vector<String>, MatchedChoices: Vector<String>)
    +displayQuestion(): String
    +getUserAnswer()
  }
  MatchingQuestion - -up|> RankingQuestion

  class EssayQuestion {
    +EssayQuestion(Prompt:String)
    +displayQuestion(): String
    +getUserAnswer()
  }
  EssayQuestion - -up|> Question

  class ShortAnswerQuestion {
    +ShortAnswerQuestion(Prompt:String)
    +getUserAnswer()
    -int CharLimit
  }
  ShortAnswerQuestion - -up|> EssayQuestion

  abstract class Response {
    +getUserResponse()
    +{abstract} compareTo(): int
  }
  Response - -lefto Question

  class IntResponse {
    -int response
    +compareTo(Object): int
  }
  IntResponse - -up|> Response

  class StringResponse {
    -String response
    +compareTo(Object): int
  }
  StringResponse - -up|> Response

  class ListResponse {
    -Vector<int> response
    +compareTo(Object): int
  }
  ListResponse - -up|> Response

  abstract class Menu {
    #Vector<String> choices
    +displayChoices()
    +{abstract}selectChoice(int)
  }

  class ExistingSurveyTest {
    +GetExisting(): Vector<String>
  }

  class StartMenu {
    +executeChoice(int)
  }
  StartMenu - -up|> Menu

  class DeleteSurveyTestMenu {

  }
  DeleteSurveyTestMenu - -up|> Menu
  DeleteSurveyTestMenu o- - ExistingSurveyTest

  class TakeSurveyTestMenu {

  }
  TakeSurveyTestMenu - -up|> Menu
  TakeSurveyTestMenu o- - ExistingSurveyTest

  class EditSurveyTestMenu {
  }
  EditSurveyTestMenu - -up|> Menu
  EditSurveyTestMenu o- - ExistingSurveyTest

  class Input {
    +{abstract}getStringInput(): Str
    +{abstract}getIntegerInput(): Int
  }
  Input o-down- main

  class ConsoleInput {
    +getStringInput(): Str
    +getIntegerInput(): Str

  }
  ConsoleInput - -up|> Input

  class Output {
    +{abstract}displayQuestion()
    +{abstract}displayQuestionPrompt()
    +{abstract}displayChoices()
  }
  Output o-down- main

  class ConsoleOutput {
    +displayQuestion()
    +displayQuestionPrompt()
  }
  ConsoleOutput - -up|> Output

@enduml

PlantUML version 1.2018.11(Sat Sep 22 12:43:53 EDT 2018)
(GPL source distribution)
Java Runtime: OpenJDK Runtime Environment
JVM: OpenJDK 64-Bit Server VM
Java Version: 1.8.0_152-release-1248-b19
Operating System: Windows 7
OS Version: 6.1
Default Encoding: Cp1252
Language: en
Country: US
-->
    </g>
</svg>